        #100245 +(753)- [X]

        <+[aa]Ho_O> i would fuck any chick i see on the internet
        <+sm4k[X-D]> www.tubgirl.com
        <+[aa]Ho_O> fuck.
        <+[aa]Ho_O> wouldnt WOULDNT WOULDNT WOULDNT WOULDNT

