        #101194 +(2871)- [X]

        <DigitlDud> So you guys really don't care if I'm gay?
        <gopus> I personally could care less.
        <DigitlDud> I'm really afraid of telling my parents.
        <gopus> Then don't.
        <wafn> DigitlDud, the way I see it, all of us have things
        about us we are ashamed of.
        <gopus> That's right...
        <Skarab> yeah, DigitlDud, I gave my cousin tongue before, and
        I think that's far more embarrassing.
        <gopus> ...
        <logiclrd-> And I look hella ugly. You've seen my pics.
        <Hello1> DigitlDud: and you basically know that I couldn't get
        laid if my life depended on it.
        <frankyd> and I smell like shit.
        <gopus> ...
        <gopus> and I think AOL rocks.
        <frankyd> gopus: ...
        <Hello1> ...
        * logiclrd looks at gopus
        * gopus was kicked by logiclrd (Bye)
        <logiclrd-> there are some things I won't tolerate.

