        #101186 +(167)- [X]

        <MagnaUnum> just got off the phone with a redhead
        <MagnaUnum> she's cool
        <MagnaUnum> she likes helping retarded kids though
        <MagnaUnum> I dunno if I can justify that with my conscience

