        #101177 +(103)- [X]

        <classNTBk> lifetime kicks ass
        <classNTBk> its got designing women
        <classNTBk> its slogan may be "television for women", but its
        attitude is "kickass enough for studs"

