        #10223 +(47)- [X]

        <luminosity> No wait... I can do better than that. they should
        develop a
                     neural connection so I can sit here and not even
        have to move.
        <martinb> sure. Can it write this requirements spec I'm
        working on, too?
        <luminosity> Why the hell not?
        <luminosity> While it's at it it can do my homework so I can
        concentrate on
                     fun stuff.
        <martinb> so get working on it!
        <martinb> no, wait, recusion
        <martinb> damn

