        #103266 +(410)- [X]

        <_Dogbert_> whats the diff btwn a bucket of menstrual fluid,
        and a bucket of sand?
        <rusty-chix> wtf?
        <_Dogbert_> you cant gargle a bucket of sand
        *** You were kicked by ChanOP ([Android] stop now.)
        *** Attempting to rejoin...
        *** Rejoined channel #teens

