        #10481 +(356)- [X]

        <jej> i need to "find" a copy of q3a for os 9/X too.
        <jej> and wolfenstein.
        <Toast> I need to "find" a copy of "your mom" for "my wang"
        <jej> ":("
        <cj_> "hehe"

