        #105350 +(332)- [X]

        <dora> I got one of those new penus razors
        <rigel> ...
        <dora> shit, I meant venus
        <dora> BAD typo
        <KAb0rN78> p and v are not even next to each other..
        <rigel> now we all know what she's thinking about
        <dora> :P

