        #105946 +(366)- [X]

        <Quigalo> Fried eggs on a burger is like coming on a 12 year
        old girl's ass. It might sound tempting, but you just have to
        think about what you're doing for a second, and stop.

