        #106198 +(78)- [X]

        <Mystical> what black super hero movie have u seen
        <Mystical> meteor man was
        <Oolong> shaft
        <Mystical> umm
        <Oolong> wait
        <Tenchi147> meteor man
        <Oolong> is he a super hero
        <Oolong> i consider shaft to be a superhero
        <Oolong> or at least one bad mutha

