        #106877 +(171)- [X]

        < maria> iMacs look a little like breasts with some sort of
        appendage stuck on where the nipple should be
        <@pearlbear> maria: !
        < maria> what?!
        < maria> they do!
        <@pearlbear> they do, now, don't they
        < karynn> maria needs to get laid
        <@pearlbear> why didn't I ever notice that.
        <@pearlbear> I mean those circles of vents on the top...
        * pearlbear now has a new reason to love her iMac

