        #10682 +(609)- [X]

        <Birk> Since you know, you get to choose a name when you are
        pope
        <Birk> If I ever became pope I would choose the name Perri.
        <Birk> So then people would call me pope perri, and they would
        be forced to laugh whenever saying my name.

