        #107111 +(874)- [X]

        * +bulitpruf is AFK, playing horseshoes wit my blind uncle and
        his midget son
        * +sab0t is AFK, playing horseshoes with my midget son & my
        gay nephew

