        #107303 +(111)- [X]

        <GaNja> anyone here good at setting up video cards?
        <Blue> nope, im horrible at it myself, so bad in fact i dont
        even havea video card
        <GaNja> oh
        <GaNja> that sucks

