        #107395 +(14)- [X]

        <McBigMac> WHO STOLE MAH LIGHTER ?!
        <MysteryIslands> _o/
        <MysteryIslands> gotta take smoke now :D
        <McBigMac> Life needs a fukkin Search Function!
        <McBigMac> Search: Find Lighter

