        #107477 +(161)- [X]

        <@London> and you're 18, a little early to be making a huge
        deal out of a 5 month relationship
        <%KiK`Grieving> Normally I would agree, but even though it's
        been only 5 months, it seems like so much more.
        <+Spazz> He plays quake and idles in a channel on netfrag. 
        Having a girlfriend is like.. a status.  Puts you above the
        rest.  When you lose that status, it sucks.  :p
        <%KiK`Grieving> Indeed.

