        #10769 +(21)- [X]

        <Ozzy|> whoa, now i understand why its cheaper to build your
        own comp
        <Rufio]LK[> explain your reason
        * Rufio]LK[ drinks his milk so it can come out his nose :P
        <Ozzy|> haha
        <Rufio]LK[> hurry, i wanna hear why :P
        <Ozzy|> ok, cuz i thought the motherboard costs the most...
        but i'm lookin at em here and its only around $30

