        #107985 +(583)- [X]

        * EB eats a banana, really slowly
        * SC finds that disturbing.
        * eye too
        * EB CHOMPS
        <eye> O_O
        <SC> uck.
        * Reis gets an erection.
        <eye> for some reason that makes my will yhurt
        <EB> lol
        <EB> I love doing that... especially when there are lots of
        people around. Eat your banana really slow. THen suddenly, go
        CHOMP
        <SC> heh
        <EB> And see how many guys wince.
        <eye> you madam are evil!
        <EB> yes, yes I am

