        #10828 +(249)- [X]

        <MeTh|pizzza> ack! i think some1 is tryin 2 break into my
        house! i just saw a kladder go by the window...
        <ddrfreak> really?
        <MeTh|pizzza> in other chan...
        <ddrfreak> somoene is trying to break into your house in the
        other channel?

