        #108216 +(792)- [X]

        iHeartDonKnotts: So Tuesday we go to Fry's
        iHeartDonKnotts: And I buy a few CD-Rs
        iHeartDonKnotts: Rick buys Half Life Platinum Pack, despite
        all of us urging him not to
        iHeartDonKnotts: And Mo fucking steals two hard drives, a
        9700, and an mp3 player
        cyateon: wtf
        iHeartDonKnotts: I know!
        iHeartDonKnotts: Fuck, Rick, I'll burn it for you!

