        #10947 +(472)- [X]

        <@Drezdar> This summer I'm gonna buy a DDR pad.  I figure I
        can kill three birds with one stone by doing this:  1) play a
        game, 2) exercise, 3) swear off heterosexuality for good.

