        #10950 +(348)- [X]

        <Drezdar> I yelled at my mom the other day for opening my
        shades while I wasn't home.  I told her "I don't allow
        sunlight to enter my room."  She looked at me funny and then
        walked away.

