        #109533 +(34)- [X]

        <KeeperX> if i say anything nonsensical
        <KeeperX> i'm cleaning my keyboard
        <KeeperX> sjkl;'
        <KeeperX> fvgbhnjkl;'ccfvvvvvvvvvvvvvvvb n  bvcxzxcvbbnm,.
        /,mnbvcxzAsdfghjkl;';lkjhwqwertyuioip['
        <KeeperX> k
        <KeeperX> i'm done
        <KeeperX> there were pubes in my keyboard
        <KeeperX> i dunno how they got there
        <Todd> sick

