        #115126 +(110)- [X]

        <Thin-H-Line> what's the best thing about an ethiopian
        blowjob?
        <Porn_Angel> what?
        <SKS> wat?
        <Thin-H-Line> you know she'll swallow..

