        #115726 +(581)- [X]

        * |SiN| yawns.
        * Asfand_Yar has quit IRC (niven.freenode.net
        irc.freenode.net)
        * mattsteg|mobile has quit IRC (niven.freenode.net
        irc.freenode.net)
        * paq_ has quit IRC (niven.freenode.net irc.freenode.net)
        * sleep|761 has quit IRC (niven.freenode.net irc.freenode.net)
        * |SiN| has quit IRC (niven.freenode.net irc.freenode.net)
        * Tang has quit IRC (niven.freenode.net irc.freenode.net)
        * rasp has quit IRC (niven.freenode.net irc.freenode.net)
        * hack|afk has quit IRC (niven.freenode.net irc.freenode.net)
        * thorak has quit IRC (niven.freenode.net irc.freenode.net)
        * Jim_ has quit IRC (niven.freenode.net irc.freenode.net)
        * kampf_wk has quit IRC (niven.freenode.net irc.freenode.net)
        * hack|afk has joined #2cpu
        * Asfand_Yar has joined #2cpu
        * mattsteg|mobile has joined #2cpu
        * paq_ has joined #2cpu
        * thorak has joined #2cpu
        * rasp has joined #2cpu
        * Tang has joined #2cpu
        * kampf_wk has joined #2cpu
        * |SiN| has joined #2cpu
        * Jim_ has joined #2cpu
        * niven.freenode.net sets mode: +oooo hack|afk kampf_wk |SiN|
        Jim_
        * sleep|761 has joined #2cpu
        <DracoDanMP> wow sin, you must have some nasty, nasty breathe
        <DracoDanMP> you just blew half the channel away with a yawn

