        #11820 +(334)- [X]

        <LL-> why did u msg me?
        <marry> realy im searching to get married
        <marry> can you help me
        <LL-> why u wanna get married?
        <marry> becuse i dont want to live in gaza

