        #11860 +(408)- [X]

        <Fozzie> why is it so hard to find a good windows font?
        <Fozzie> bah
        <Fozzie> what a craptastic os.
        <dithi> you get what you pay for
        <Fozzie> you mean the copies you buy are better?

