        #119800 +(129)- [X]

        <FluKex> isnt cheddar house for the alternative sexual
        preference people?
        <crib> FluKex you mean fags?
        <FluKex> crib my term is less..  umm,  bah,  ya,   its for
        fags

