        #1227 +(1185)- [X]

        <brian`home> so im takin my shower
        <brian`home> then i whip out the old hockey shampoo
        <brian`home> I WAS LIKE OMFG I LOVE YOU HOCKEY SHAMPOO
        <brian`home> so i take a swig of it
        <brian`home> cuz it smelled so f'in good
        <brian`home> dude it tasted nasty

