        #12343 +(402)- [X]

        <McMoo> i think there's a vacuum cleaner thief in the
        neighborshood
        <McMoo> i wake up to a knocking on the door
        <McMoo> some aZn woman is there
        <McMoo> 'hi, i live down in 114. do you by any chance have a
        vacuum i could borrow?'
        <McMoo> i'm not even sure there is a 114 in our building
        <McMoo> and she's been vacuuming for a while now.

