        #123586 +(1090)- [X]

        [Yaksha] At least I'll have my laptop with me at work ;)
        [Heri] WOOOHOOO!
        [Heri] No clitoris, though
        [Yaksha] Clitoris?
        [Heri] yeah you know... the little bump in the middle of the
        keyboard ;)
        [Heri] you kinda have to tickle it to make it work
        [Yaksha] lol
        [Yaksha] I think that'd look kind of weird at work ...
        [Yaksha] The computer starts beeping louder and faster ...
        [Heri] LMAO LMAO LMAO
        [Heri] then shoots a CDROM out of the drive
        [Yaksha] LOL
        [Yaksha] The monitor panel slowly falls into the closed
        position
        [Heri] LMAO!
        [Heri] then it smokes a ciggy?
        [Yaksha] Nahh, it formats a floppy

