        #123721 +(597)- [X]

        <Mutation> wow, only 260 quotes pending on bash...
        <Mutation> i think its a sign of the end times...
        <Mutation> when it hit's zero jesus returns to us in the form
        of a nigger joke

