        #124556 +(522)- [X]

        <X0rG> u know how stalkers on teh intranet sometimes send
        their victims gifts?
        <beuges> yes?
        <beuges> you have received a gift?
        <X0rG> I want a gift
        <beuges> whoa
        <X0rG> so I shal entice a stalker today
        * X0rG is now known as HotBabe15

