        #125283 +(13323)- [X]

        <Jeedo> hey baby, whats up?
        <Indidge> umm....nothing?
        <Jeedo> So....want me to like come over today so we can fuck?
        <Indidge> Wait....did you want to speak to my daughter?
        <Jeedo> Yes  Mrs.Miller.. :-/

