        #13111 +(211)- [X]

        <neia_doll> Im 5 foot 11 and 116 lbs..i lost 3 on accident..
        <k-rad-bob> accident?
        <neia_doll> so Im pretty skinny
        <k-rad-bob> you got an abortion?

