        #13630 +(256)- [X]

        <Robertuybrush> HELLOW, I'M ROBERTUYBRUSH THREEPWOOD!
        <Robertuybrush> I JUST WANT TO BE A PIRATE
        <FortKeeper> To become a pirate, turn off CAPS-LOCK

