        #136597 +(958)- [X]

        <seraph> does anyone here have the Matrix 1?
        <comet_11> searph
        <comet_11> just search for the matrix reloaded
        <seraph> noooo
        <seraph> i want the FIRST one
        <seraph> the original
        <comet_11> yes
        <comet_11> I'm saying if you search for reloaded, you'll find
        the first one
        <comet_11> you made the mistake of searching for the first
        matrix
        <comet_11> that'll get you fight club

