        #136899 +(534)- [X]

        <Ross> What are they naming the bastard child?
        <Tiffany> she wants to call the baby Rochel if it's a girl
        <Ross> hooker name
        <Tiffany> and they will probably name it Vampire Hunter D if
        it's a boy
        <Ross> I'd name my kid something totally badass, regardless of
        the sex
        <Ross> Like
        <Ross> Tyranocore
        <Ross> Or Vader

