        #137243 +(300)- [X]

        [@revmoo]: O_o
        [@revmoo]: I love windows
        [@revmoo]: I unpack a divx on k:
        [@revmoo]: and it tells me
        [@revmoo]: "C: is running out of space"

