        #137853 +(604)- [X]

        <Kai> I like big xc,jhagjhrrss and I cannot lie.
        <Ben-San> You other brothers can't deny when a fhgargh walks
        in with an itty bitty SLAJCHSAFGBG and a big typo in your
        face.. :P
        <Kai> You get gfdhgfj and you wanna pull up gfyifu because you
        notice that xc,jhagjhrrss was djhfdjhf.
        <Ben-San> This leads to the eternal question: what rhymes with
        djhfdjhf?
        <H_Cuz> gjhfdjhf.
        <Kai> bjhfbjhf?

