        #139604 +(322)- [X]

        <Hydra> * penguin has joined #12-15yrz
        <Hydra> <penguin> any chicks there
        <Hydra> lol
        <Kevorkian> what scares me hydra, is that you are in that
        channel

