        #141248 +(671)- [X]

        <Beren87> A swift kick in the pants
        <Beren87> that's always my suggestion
        <Beren87> for anything really
        <Beren87> Need to move a mule? A swift kick in the pants. Need
        orange juice? A swift kick in the pants
        <Beren87> It's very multi-purpose
        <TheXPhial> I need a gift for a friend

