        #14190 +(583)- [X]

        <joey`> what was that url again langdon
        <joey`> ircnews
        <sharkbyte> http://www.ircnews.com/lamers.html
        <joey`> langdon...tell people to stop answering questions for
        you
        <sharkbyte> langdon says no problem
        <joey`> good

