        #14198 +(628)- [X]

        (Horny-Net-Geek): Hi, I just got my computer yesterday morning
        took all day to set up and I stayed up half the night to
        download mirc from a web sight in Turkey. My questions is (1)
        how do I get ops (2) how do you send messages. (3) all women
        here a/s/l/?

