        #1433 +(434)- [X]

        <Foo1> I AM JESUS
        <Foo1> BOW TO ME
        <Foo1> BOW TO MY GREATNESS
        <Foo1> FOR I AM THE SAVIOR
        <Foo1> (*#$(*$#
        *** Foo1 was kicked by Evel (WOOOOO I JUST KICKED JESUS FROM
        AN IRC CHANNEL!@##!@!@#!@#)

