        #14399 +(221)- [X]

        <radii> i'm unRARing, listening to an MP3, AOLing, useing
        FlashFXP, Serv-U, AIM, mIRC and going to that wepage
        <baloo_> aoling = molesting 13 year-old girls online?
        <pagan> baloo: no it means your messaging them to come over
        and get molested
        <radii> yeah, duh!

