        #14429 +(180)- [X]

        <DownstairsVex> we need mirc for unix
        <PrincessLeia2> i think mirc for unix would be a sin %)
        <DownstairsVex> but i'd rather laugh with the sinners then cry
        wit the saints

