        #14426 +(583)- [X]

        <PrincessLeia2> yeah we wrote linux install directions for
        Unreal Tournament, and I made the cuteyist UT Tux image for it
        on my webpage!
        <PrincessLeia2> ...
        <PrincessLeia2> wow, i just managed to be totally geeky and
        very girly in the same sentance O_O

