        #144532 +(617)- [X]

        (dj28): http://www.nhc.noaa.gov/ftp/graphics/AT13/refresh/
        AL1303W5+GIF/081203W5.gif
        (ZemRrushe): safe for work?
        (dj28): no. it's a government sponsored goatse orgy gallery

