        #147532 +(196)- [X]

        * demo20b has joined #odoru
        <timeless> stfu
        * demo20b has quit IRC (Exit: if you stand at the top of a
        very tall building, do u eva feel like jumping off?)
        <timeless> omg
        <timeless> thats all i takes to get rid of him??

