        #1485 +(288)- [X]

        <MrP-> what is wrong with slashdot.org?? I am almost done
        reading my 1997-2001 Slashdot.org cache CD-ROM set, if I
        finish and its not back up, I may perish

