        #15476 +(41)- [X]

        <RyanRony> [Mpeg Player | 15-green day - good riddance (time
        of your life)
        (live st paul mn 06-17-01)-svcd-ryanrony-apv.m2p |
        Size:58.1mb]
        <hyp3r> i would like a regular vcd of that one =)
        RyanRony> are u 56k
        <hyp3r> yeah =)
        <RyanRony> eek, heh
        <RyanRony> if people fxp to 56k does it still go fast
        <hyp3r> no
        <RyanRony> oh

