        #15565 +(303)- [X]

        pinkboy   so, like, how the FUCK do you let your wife get to
        1200lbs?
        ScottM    <pinkboy> so, like, how the FUCK do you fuck your
        1200lb wife?
        pinkboy   I can't imagine that it would be too difficult,
        unless of course you're picky about finding the real vagina.

