        #15571 +(45)- [X]

        <quarterz> "if you email me, i will kill all your processes. 
        if you telephone me, i will kill all your processes and delete
        all your files.  if you stop by to see me, i will kill all
        your processes, delete all your files, and remove your
        account."

