        #15636 +(269)- [X]

        <KB8> im sick of you crazypale
        <crazypale> im sick of you to
        <KB8> no im sick of you crazypale
        <crazypale> no ,im sick of you to
        <KB8> you gte on my damn nerves
        <crazypale> you make my stomache turn asswipe
        <KB8> i gotta go ill pm you later
        <crazypale> ok l8r

