        #15754 +(160)- [X]

        <demit> oh my confidence in pac bell hosting is SO high..
        quote from support
          guy about the pop server disconnecting ONE of 32 users here
        'well sir your
          tcip session is your internet connection, it has nothing to
        do with our
          servers'

