        #16088 +(639)- [X]

        <rsb> i saw a very disturbing thing this morning
        <wjr> oh?
        <rsb> a dirty bum
        <rsb> he smelled bad even, on the street for awhile
        <wjr> ah yes
        <rsb> he asked me for money
        <rsb> and
        <rsb> he had a solaris 8 shirt on

