        #16112 +(1202)- [X]

        <@ataribaby> did you know birds actually have sex?
        <@ataribaby> that disturbs me
        <@shagman> you didn't think they did?
        <@shagman> they just divided into new birds?

