        #16144 +(1388)- [X]

        <GimpMaster> why the hell i'm i on ignore :o
        <Vxie> and i wont till he apoligizes for his actions...
        <SovanJedi> How can he apologise if you can't even hear him?
        ;)
        <GimpMaster> hah
        <Vxie> i dunno
        <GimpMaster> ask him what i did :o
        <Vxie> thats what im trying to figure out...
        <SovanJedi> Gimp is asking 'what did I do?'
        <Vxie> i asked him to stop cussing infront of my lil sis and
        he didnt stop
        <GimpMaster> is that it? fuck the sand monkey. i don't care
        <SovanJedi> Gimp says 'I'm very sorry for my actions, and he
        won't do it again.'
        <Vxie> ok
        <GimpMaster> LOL

