        #163311 +(632)- [X]

        <tfg> fuck
        <tfg> I need my copy of photoshop
        <tfg> Cant find the fucking cd :/
        <tfg> This chick who lives not far from me want a picture
        <tfg> And I need to take the swastica off my forehead

