        #165870 +(548)- [X]

        <VolteFace> heh, an idiot in my art class today tried to stab
        someone with a pencil
        <VolteFace> so he grabbed the guys arm
        <VolteFace> and swings
        <VolteFace> and PLUNGES THE PENCIL INTO HIS OWN FINGER

