        #16729 +(214)- [X]

        <Vill> I think anti-cornform has great meaning to an eleiteist
        <Gotterdammerung> Vill: learn how to spell :P
        <Vill> Gotterdammerung: I did then I fucked up when I learned
        to type :(

