        #167746 +(347)- [X]

        <Mr_Vain> I'd rather have an admirer than a stalker any day
        <Phrim> what's the difference, Bonz? :-)
        <Mr_Vain> a stalker doesn't blink when they look at you
        <Mr_Vain> it's very unnerving

