        #167825 +(456)- [X]

        * ol has joined #mapcore
        <Flashdevil> I will rub my sperm in so many places that they
        won't be able to look at themselves in the mirror without
        getting pregnant.
        <ol> um... did i come in at a bad time?

