        #171110 +(-9)- [X]

        ð da5id is listening to Chicago - Hard to say I'm sorry - Get
        Away.mp3
        <da5id> I better stop listening to chicago lest I invert
        ð da5id is listening to Godsmack - Awake(Definatly have a
        penis-REMIX).mp3
        <da5id> ahh there we go.

