        #17270 +(130)- [X]

        <RatBreath> bah, i wanted to play jk2 and i get 200+ pings
        with dc running
        <NickBlasta> as it should be
        <RatBreath> so i close dc until im done
        <NickBlasta> to think, after this I'll have nothing queued
        from you
        <RatBreath> ....
        <RatBreath> you've been one of my slots for what? a month?
        <NickBlasta> :)
        <RatBreath> this will be strange
        <RatBreath> and liberating

