        #17297 +(376)- [X]

        <Enhanced> but ya i'm gonna paint my intake on my car
        <Enhanced> can i use spray paint?
        <NT5> ummm..... what other kind of paint did you think there
        was available?? latex flat wall?
        <Roppongi> finger paint
        <Enhanced> i just dont wanna use paintbrush kind of paint
        <NT5> lol
        <NT5> paintbrush kind of paint.... that's good
        <NT5> get out the roller billy-bubba
        <Enhanced> well shit i dont know anything about paint
        <Enhanced> except finger paint
        <NT5> we gonna paint us a car

