        #175 +(1160)- [X]

        <Amanda_> Alright
        <Amanda_> Are multiple people paying attention?
        <Amanda_> Here's what I freaking want for Christmas
        <Amanda_> Someone find me a friend
        <Amanda_> A FEMALE FRIEND WHO IS NOT A DUMBASS

