        #1760 +(163)- [X]

        *** Parts: MadHatter (Hatter@ha.kz)
        *** Joins: MadHatter (Hatter@ha.kz)
        <MadHatter> wtf
        <MadHatter> who kicked me
        <Lepper> heh, you're too anal about being kicked
        <MadHatter> I just want to know
        <scar`> [16:57] *** Parts: MadHatter (Hatter@ha.kz)
        <MadHatter> yeah ok
        <Lepper> don't clients tell you when youg et kicked?
        <Lepper> err, who kicks you
        <MadHatter> I dunno man, I'm busy here
        <MadHatter> leave me alone

