        #1784 +(523)- [X]

        <D1> on call for help, they ask this guy for the type of modem
        he has, so he tries to be a bigshot and says, "YEAH, I HAVE AN
        INDUSTRY STANDARD ARCHITECHTURE MODEM, I THINK IT'S PCI."

