        #17966 +(104)- [X]

        <ALT--F4> im a irc nerd
        <ALT--F4> i have spend up to 14 hours on here at a time
        <ALT--F4> its my favorite thing until i remember that i have a
        penis.
        <Majin-Buu> k you are weird
        <Majin-Buu> ill have to take ur nick into consideration
        Parts: Majin-Buu (none@h24-66-113-73.tb.shawcable.net) [21
        users]

