        #1913 +(256)- [X]

        <refugee> Robbin: you think this is just a 'rag the dog'
        scenario?
        <vermifuge> refugee - you need to put this in terms she can
        understand
        <vermifuge> Robbin - do you think they are having a sale on
        fried fish, just to draw attention away from the fact that
        they ran out of chicken at popeyes?

