        #193186 +(435)- [X]

        <ld>: my parents got really pissed at me for my grades
        <leet eskimo>: sux to be you
        <ld>: but i ownd their faces off
        <leet eskimo>: how
        <ld>: well "i cant belive you have a 50 in gym"  "it's ok, i
        had subway for lunch"

