        #195969 +(2054)- [X]

        <TXTerron> wanna know whats geeky?
        <Jennifer> hmm?
        <TXTerron> I'm driving down the road
        <Jennifer> I drove down the road today too...
        <Jennifer> Wait, You mean you're on irc in your truck?
        <TXTerron> yeah, using my wireless card
        <Jennifer> ^___^
        <Jennifer> Jason, is that safe?
        <TXTerron> na, i just type with one hand while I'm driving and
        halfway watch the road, its cool, dont worry
        <Jennifer> You're good with typing with one hand?
        <TXTerron> shaddup :D
        <TXTerron> FUCK
        <TXTerron> i just rear ended a lady
        <TXTerron> brb :(

