        #20269 +(279)- [X]

        <Graeme> Fifty-nine people have attempted suicide and, out of
        this, 26 people have died. This is of great concern
        <Graeme> i bet it fucking is.. a return rate of 50% is pretty
        shitty

