        #2068 +(281)- [X]

        * Ashboy notices that solidair has changed his alias
        <SolidLand> yes.
        <Ashboy> wh00p! l8r.
        *** Ashboy has quit IRC (yes)
        <SolidLand> never seen a guy so excited about my nick change

