        #212226 +(1346)- [X]

        <DoCa-Cola> dude, i just saw this porn video, every 30 seconds
        it cut to a turtle just sitting on a rock...
        <DoCa-Cola> What kinda shit is that?
        <SilentAvenger> DoCa-Cola, Turtle porn.
        <DoCa-Cola> It's like suck suck suck suck bang bang TURTLE

