        #213946 +(513)- [X]

        <nomad> im getting supermassive black holes
        <nomad> woohooooooooooooo!
        <nutkase> i saw a porn with that title
        <nomad> yeah right
        <nutkase> but i think it might have been submissive black hoes

