        #21889 +(234)- [X]

        <SimonBob> A friend of mine was the games monitor for a linux/
        windows hybrid comp at school
        <SimonBob> He was in charge of deleting games
        <SimonBob> And he was like "Linux? That game isn't fun"

