        #219422 +(99)- [X]

        <DaedalusX> most constipation is where your ass muscles have
        had it tho :P
        <Nigelenki> x.o
        <Nigelenki> that's gonna happen to me one day
        <Nigelenki> my ass is gonna just give out from the stress
        <DaedalusX> heheheh
        <DaedalusX> Elvis died straining on the toilet :P
        <Nigelenki> o.o;
        <DaedalusX> in case you didn't know
        <Nigelenki> i was referring to things going in more than
        coming out.

