        #22017 +(75)- [X]

        <LordOphidian> it all comes back to the manboobs
        <LordOphidian> the circle of life
        <cevik> that's because the manboobs are so large they create
        their own gravity
        <RedVoop> The circle of boob.  It consumes us all.  As we find
        our hate...  on the nip all-dribbling...  o/~
        <Selby> a dripping nipple... now we have truly come to nirvana
        in this conversation
        <LordOphidian> yes we have
        <Selby> I am at peace

