        #22089 +(408)- [X]

        <lavhoes> fuck me in the Ozarks...
        <lavhoes> i was whacking off to this hot naked Japanese chick.
        <lavhoes> and it's actually a guy.
        <lavhoes> stupid How to Draw Manga books.

