        #22082 +(371)- [X]

        2:49°am -(Nova`)- I'd like to cover your soft milky breasts
        with chocolate syrup and make a trail that goes down to
        between your legs. Then Ill slowly start licking up every
        drop.
        2:49°am -(Nova`)- err
        2:49°am -(Nova`)- SHIT!
        2:49°am -(Nova`)- wrong chan
        2:49°am -(Nova`)- sry

