        #22112 +(1869)- [X]

        <Feeldeath> Man i had a bad day !!!
        <Formin> o great =( what happened?
        <Feeldeath> well i was masturbating on my couche an I fell of
        <Formin> hahaha o god
        <Feeldeath> thats not the worst part. i hit my head on the
        coffee table and knocked myself out and my mom came in and
        found me unconscience on the floor with my dick in one hand
        and a porn mag in the other.
        <Formin> lmao

