        #22372 +(255)- [X]

        *** _Kenny (kenny@md4690fc1.utfors.se) has left #
        cracking4newbies
        *** _Kenny (kenny@md4690fc1.utfors.se) has joined #
        cracking4newbies
        <_Kenny> who kicked me

