        #22389 +(914)- [X]

        <sortof> i need ducktape so i can take a shower
        <DEZM> uhhhh
        <DEZM> i dont want to know what you do with that
        <sortof> i tape up my knob real good
        <sortof> to keep it down
        <DEZM> uhhhhhhhh
        <sortof> noo on the shower
        <sortof> the drain wont stay closed

