        #22799 +(807)- [X]

        <briancuz>My mom is ashamed of me because i'm not an alterboy.
        My dads ashamed of me because i'm not a football star
        <sswoop182>sooooooo............Tackle a priest

