        #22899 +(571)- [X]

        <@freak> i now have a 'HEERZ WUT IM LISTANEN 2' plugin so i
        can piss everyone off
        * @freak listens to PUDDLE OF MUDD - BLURRY
        <@freak> not even a kick? :(
        <@freak> fine
        <@freak> i'll do it
        *** freak was kicked by freak (NO FAGS IN #WTF ASSHOLE)

