        #22910 +(28)- [X]

        <Ancalag0n> yes i just used residents as a verb
        <dragonbyt> i hate fskcing dialup
        <Ancalag0n> dialups gay
        <Akki> how about "resides on"
        <Ancalag0n> u should get aol
        <Ancalag0n> akki:nope
        <mikephoen> what the hell, did they install irc at the retard
        house :/

