        #23298 +(159)- [X]

        <Kethry> Leida, you're more than a trend now
        <Leida> what am i now? what can there possibly be above a
        trend?
        <Sensai-Sakiya> god? immortal? person worshiped by all?
        <Leida> you are all worshipping me?
        <Ibaimendi> I never realized the line between abuse and
        worship was so thin.

