        #23311 +(183)- [X]

        <Tseng> Look what i got @ Email :!
        <Tseng> "Every time you download warez, God kills a
        programmer, please think about the programmers"
        <Tseng> Shit then
        * Tseng is AFK,  Leeching Warez 

