        #233293 +(1062)- [X]

        <@Dogpile> 88. Who recorded "Join Together" in 1972?
        <Tback> like who knows these
        <@Dogpile> Tback got the answer: the who. In: 2.43 secs.
        Streak: 1. Current wins 23!

