        #23445 +(176)- [X]

        <DSCS_SoCalKicks> click the live365 link
        <DSCS_SoCalKicks> ont he bottom it says also try and gives
        links to more stations
        <Niq> I'm not into "clicking links".  It's a gateway drug.

