        #23609 +(170)- [X]

        (Marxs2): How much do you really know me darn? Did you know i
        was a overweight 65 year old man that spends all his extra
        money from his 6.25 an hour job on porn and star wars figures?
        did you know that?

