        #23833 +(268)- [X]

        <MrSaturn> oh yeah, and I've run a shopping cart into John
        Romero
        <MrSaturn> on accident, of course ... but when I saw who it
        was, I almost did it again
        <MrSaturn> my first thought was "damn slow hippie woman"
        <MrSaturn> then he turns around.
        <Trikky_Dikk> After he turned around, I still would have
        thought, "Damn slow hippie woman."

