        #239995 +(1466)- [X]

        <Drychtnath> csn hold sm u ajcp;pjp
        <Drychtnath> *I cns hdol mu alclhoo
        <Drychtnath> *can, *hold, *my, *alcohol
        <getoutofmygalley> You should really go to bed, Dan. You're
        way too drunk.
        <Drychtnath> butr i'm not
        <Drychtnath> least i don't think dfo
        <Drychtnath> dfo = spo
        <Drychtnath> spo = os
        <Drychtnath> os = so

