        #2408 +(111)- [X]

        <@v9> i think survivor 3 should be where we put all of them in
        a landmark building, and see who pussies out first
        <@v9> like the empire state building

