        #242746 +(661)- [X]

        <Petter>It's a bug
        <X-Winger2>I refuse to believe XP has any bugs ;P
        <X-Winger2>well
        <X-Winger2>Except it won't let me see my hard drive right now

