        #244131 +(387)- [X]

        <andrewg> eps will make you drop the soap on command
        <andrewg> AND
        <andrewg> insert a tracking device
        <djrand>  good god
        <djrand>  i think thats enough
        <@epic_>  lol
        <epic_>   Did we make you blush rand?
        <epic_>   your virgin ears.
        <djrand>  indeed
        <epic_>   should put comdoms on them..   wont catch hearing
        aids.

