        #244385 +(481)- [X]

        <Lifeforce> way to make your kids afraid that you'll catch
        them looking at porn- if you do, start beating off next to
        them without explanation or even talking.
        <Seppel> LF is gonna be divorced fast.

