        #246484 +(105)- [X]

        expyro: I loved setting those things that came in the packages
        on fire. THey would ignite, then explode. Then on exploded in
        my hair. It wasnt funny anymore

