        #253683 +(847)- [X]

        <Sarah> I just saw 28 Days Later
        <rude-inverse> that's one of those movies I always planned on
        seeing but never did.
        <rude-inverse> what was the significance of "28 days"? the
        only thing I associate 28 days with is a menstrual cycle.
        <Sarah> maybe that's why there was so much blood.

