        #2552 +(417)- [X]

        <circle> one place was offering like $2500 if u let them cut
        off a toe and re-attach it
        <McMoo> that's excellent
        <circle> no kidding, i'd be like, "do all 10"

