        #26776 +(-2)- [X]

        * Lieutenant_Dan thinks that it strangely tastes like poo
        <Lieutenant_Dan> my mum made heaps of this cream caramel stuff
        <Lieutenant_Dan> it's awesome!
        <Jed_D`Lagged> Ew.
        <Ragnarok`> did ur mum have a shit or something?

