        #27111 +(880)- [X]

        <Ronwe> Why is it that every time I say something everybody
        runs to "bas"?
        <Ronwe> wtf is bash
        <viro|away> http://www.bash.org
        * Ronwe goes
        <Ronwe> oh fuck.

