        #27306 +(366)- [X]

        (timmo) her boobies are fake
        (timmo) ;[
        [nyisles] hmm
        [nyisles] are they photoshopped
        [nyisles] ?
        [Guilty] No
        [Guilty] They're implants

