        #2768 +(31)- [X]

        *** CHAOS_IS_BLISS
        (jfdkhglkfd@cdm-66-244-43-tylr.cox-internet.com) Quit
        (burghcom.fdfnet.net thealamo.fdfnet.net)
        <nomis_nehc> whoa
        <nomis_nehc> wtf, all those peepz off at the same time, or
        what's up?
        <nomis_nehc> power outagae somewhere maybe?

