        #280579 +(565)- [X]

        <SwiftWrk> so... warcraft 3 in like 2 hours?
        <fugimax> so...
        <fugimax> my balls in yo' mouth in like 3 hours?
        <LockeCole> erm...if I'm available sure
        <LockeCole> damn

