        #281470 +(-155)- [X]

        <Cannibal> god damnit
        <Cannibal> no one wants to play monopoly with me
        <Cannibal> i need to stop getting mad at people and stabbing
        them when i play that game
        <Cannibal> gives me a bad rep
        <Hellise> lolll

