        #283097 +(2197)- [X]

        <Sabdo> So I went into my school's band room for the first
        time today
        <Sabdo> Biggest bunch of nerds I've ever met.
        <Sabdo> and this one girl walks in, really hot,
        <Sabdo> and I swear to fucking god,
        <Sabdo> three kids pulled out inhalers

