        #28701 +(33)- [X]

        <Damocles> one of my classmate from HS apparently got a boob
        job.
        <ogre173> cool
        <ogre173> is it done good?
        <Wetzel_116> heh
        <Jim258> lol
        <Damocles> dunno.
        <Damocles> she works at the video store by my house.
        <Damocles> I should go take a look.
        <Jim258> or two...

