        #2912 +(496)- [X]

        <IceWizard> What the HELL is up with these candy companies?
        Little teeny bars are called 'Fun Size'.. Damn, Whats so fun
        about a smaller candybar?!?

