        #2921 +(485)- [X]

        (Fungus): idler, define " life " please :)
        (Idler): Fungus: Life is the thing that grows in my fridge
        (Idler): Starting to get really big now
        (Idler): Might have to kill it some day
        (NX): did u try to eat it?
        (Idler): NX: No, that's what I should have done a long time
        ago

