        #298 +(984)- [X]

        <DigDug> how about i make a special back door, just for you
        :-)
        <Amanda_> Oh, that'll work just as well
        <McMoo> pen just invited you to have ass sex with him

