        #2991 +(267)- [X]

        <Lord-Data> chmod 777 is the kinda thing i do on my own
        personal box when i cant be fucked figureing out what the
        perm's SHOULD be
        <Lord-Data> which is, sadly, most of the time

