        #2993 +(156)- [X]

        <michael-> Of the city's 11,500 firefighters, 2.7 percent are
        black and 3.2 percent Hispanic
        <michael-> reeediculous
        <maff> that's because their darker skin color attracts the
        heat

