        #301230 +(2299)- [X]

        FecalAlcoholSyndrome> i love how they try to say that
        homosexuality is a
                               leading cause of pedophilia
        <angie> i think perverts are the leading cause of pedophilia
        <h4ck> homosexuality is the leading cause of caring,
        compassionate men
        <sunrinse> sexy children are the leading cause of pedophilia

