        #3106 +(275)- [X]

        <Maxstah> GOD what i'd do for gwen (stefani) to just kiss the
        tip of my cock
        <Javi> you'd blow me?
        <Maxstah> javi i'd swallow
        <Maxstah> i'm comfortable with my hentrosexuality
        <Maxstah> long as i have a coke to chase it down with

