        #31165 +(400)- [X]

        truthug17: so u have a man
        Cassandra: Oh yes.
        truthug17: do u love him
        Cassandra: I do.
        truthug17: could u love me
        Cassandra: I might. But I'd never sleep with you, so I guess
        it doesn't matter.

