        #3130 +(536)- [X]

        <berly> *puh*  You can call me anything you want!
        <Joshua> aww... i'll try not to abuse that, sex-kitten
        <Joshua> i like that sentence better without punctuation...

