        #31543 +(560)- [X]

        <Pr1ncess> oh sick i just sneezed and blood shot out of my
        crotch
        <etrigan> that time again??
        <Pr1ncess> hahaha
        <Pr1ncess> yes
        <Pr1ncess> that was a pretty fucking sick thing to say wasnt
        it?
        <etrigan> hell yes

