        #3194 +(456)- [X]

        <dot> one sex
        <dot> eek
        <dot> sec
        <dot> damn that typo
        <Alexander> sure
        <Waldo> paging doctor freud...
        <Waldo> paging doctor freud...

