        #3201 +(446)- [X]

        <Waldo> tool, are you retarded or just an idiot? i need to
        know if i should just hate you or pity you as well.
        <Tool> i think you should hate me
        <Waldo> that's a given
        <Waldo> i need to know if i should pity you as well.

