        #32235 +(8)- [X]

        [bew] besides, the only reason ryans mom rides the short bus
        is because RicePWR's mom's fat-ass broke off the back half
        when she sat down
        [bew] ;/
        [veedub15psi] bew: BHAHAHAHAH
        [@trendwhore] bahahaha

