        #334679 +(656)- [X]

        <^sWift> omfg
        <^sWift> this shit is horrible
        <^sWift> McDonalds now offering a free music download with the
        purchase of a Big Mac Extra Value Meal
        <^sWift> "an average of 12 songs on a CD, so that's about 7200
        calories you will need to consume in order to get an album's
        worth of music"
        <^sWift> ahaha
        <^sWift> People are willing to slowly kill themselves for free
        mp3s

