        #33592 +(1217)- [X]

        <Inversation> realised there were still debates about wigga
        and christianity etc, kicked the cd player to make it move
        then fell asleep again
        <^Spike^> Debates about WIGGA?
        <^Spike^> Is that some homie pagan religion?
        <^Spike^> Yo yo, whathup mah earth sistas.
        <^Spike^> Word to jo Goddess, aight.
        * ^Spike^ fires his wand at a rival Coven while riding past on
        a unicorn.

