        #337916 +(915)- [X]

        <beefstain> i wish faggots would stop putting my deoderant on
        me with their tongues while i slumber
        <beefstain> i mean
        <beefstain> YARR, MANLY THINGS

