        #33876 +(512)- [X]

        <Asha`monkey> I went to the beach with two of my female
        friends one night, and when we got there they started making
        out with eachother.
        <Asha`monkey> Then when I tried to lean over they were like
        "HAHA, YEAH RIGHT."
        <Asha`monkey> Bitches.

