        #34242 +(190)- [X]

        <DouXXX> tecmo bowel was da shit
        <DouXXX> oppps bowl
        <Diablos> tecmo bowel
        <Diablos> hahaha
        <DouXXX> LMFAO!
        <Diablos> it certainly WOULD BE the SHIT
        <DouXXX> totally shitty!

