        #34279 +(41)- [X]

        <Gamer55|FUCKYOU> nah, the thing is me and wacko luv
        eachother, we have 20 babies :)
        <Gamer55|FUCKYOU> i ate them all tho :(
        <mik3y> whoa
        <mik3y> 20 babies and you're 20
        <mik3y> CONSPIRACY
        <Gamer55|FUCKYOU> theory!
        <mik3y> and wacko is like 12
        <Mojo> :O
        <mik3y> explain the math on that one
        <Threeboy> if there's grass on wacko's feild, I play ball.

