        #34311 +(273)- [X]

        <AdeptaCheese> now
        <AdeptaCheese> im scared to ask this
        <AdeptaCheese> but what the fuck
        <AdeptaCheese> is bukkake
        <Al3xand3r> :o
        <Al3xand3r> :x
        <Al3xand3r> XD
        <Al3xand3r> I have no idea...

