        #34324 +(66)- [X]

        * Tak777 "Rams" DodgeGrl
        (Tak777) are you built tough?
        (DodgeGrl) NOO
        (DodgeGrl) I am delicate like a flower
        (Mavrick69) 'built tough' is Ford, not Dodge.

