        #343937 +(1292)- [X]

        <BlackAdder> no, because ds told me that building a comp is
        like putting together lego
        <BlackAdder> and then i went and tried putting lego together
        to see
        <BlackAdder> and i cut my finger

