        #34419 +(285)- [X]

        <zimalicious> size doesnt matter. as long as you know how to
        use it.
        <Ralp> But size does matter if you have no idea what you're
        doing?
        <Mattress> hmm, I didn't really have any idea what I was doing
        and it was apparently awesome, does that mean I have a big
        penis?

