        #346240 +(1315)- [X]

        (lawngrl): im gonna insert my ipod in my vagina tonight and go
        to sleep i love it so much
        (Fire_on_High): I'm quite sure that'll void your warranty

