        #34741 +(131)- [X]

        <Nyphur> Everything I say is a lie.
        <Nyphur> I AM COMPULSIVE LIAR!
        <CWGerard> Oh no, what to believe!!!
        <CWGerard> I ARE BORK!  DOWNLOAD TEH PATCH!

