        #34862 +(146)- [X]

        <TigerSun> check this out people, I saw someone's greet line
        on a bot today that
        says "In God We Trust, everyone else get yourself an X.500
        certificate"

