        #349 +(1394)- [X]

        <ping> oh, im ready for the upcoming school year
        <End[gone]> i dont think it will be any different
        <zxaxox> thats why you have to take a shotgun and MAKE it
        different.

