        #35433 +(482)- [X]

        <RQ> im gonan go in and tweak with it again
        <RQ> gonna!
        <ZephyrX> gonan
        <RQ> hehe
        <ZephyrX> the pre-pubescent barbarian
        <RQ> LMAO

