        #35862 +(1460)- [X]

        <PovRayMan> Weee
        <PovRayMan> some hot chicks asked if I wanted to go to the bar
        with them
        <PovRayMan> and drink
        <PovRayMan> and dance
        <PovRayMan> i said no
        <PovRayMan> because star trek is on

