        #35922 +(108)- [X]

        <Base2> Win2k has that feature where I can be logged in, then
        "suspend" or whatever, and let my girl user her account right?
        <Cosmok> Base2   thats xp
        <Base2> damn it
        <Floach> your girl needs her own damn computer :)
        <Cosmok> who are you kidding, you dont have a gf, just a sock
        <_mrG> hrm
        <_mrG> I guess socks could use a computer, if they are the
        type with toes

