        #3613 +(500)- [X]

        <SinbadTheSailor> hi hedge...are you on turps?
        <Hedge> quite sober actually
        <sTar69> sober like, just jammed my penis in the door kinda
        sober?
        <Hedge> sober like i just got caught shoplifting a dildo kinda
        sober
        <sTar69> oh THAT kind of sober ;)
        <sTar69> i mean err what are you talking about?

