        #36466 +(335)- [X]

        <sup3rh3r0> kali: give me your user name and password and I'll
        test it
        <kali> yes, that's what it is!
        <kali> supadupakali, surge
        <sup3rh3r0> (email address censored)
        <tima> heh
        <sadielady> haha
        <WhtCastle> heh
        <p3t3_> hehe
        <zombidwee> hahahaha
        <zombidwee> mwahahhahah
        <tima> smrt
        <Valandra> whoops
        <kali> uh, that's probably bad to say since surge is like my
        password for everything, huh
        <WhtCastle> LOL
        <Tony> hah
        <p3t3_> HAHAH

