        #3650 +(290)- [X]

        (@watchy): hey io
        (@watchy): i am gonna put up a ebay auction
        (@watchy): i'm gonna auction my sperm
        (@watchy): haha
        *** Quits: watchy (Excess Flood)
        (@[IO]): or not

