        #36622 +(-68)- [X]

        <+timmo> i uploaded 146mb yesterday
        <+RushMore> i have downloaded 1,174.19mb in 1day 4hours
        <+Kuro_> that's 1.68kbps, timmo
        <+Kuro_> for 24 hours
        <+Kuro_> not too fast, but persistent like a nigger trying to
        get out of a well

