        #366903 +(1058)- [X]

        <neverrain> omg i went outside
        <neverrain> i havent been outside in weeks
        <neverrain> it was.....freaky
        <c7r> nerd
        <Axis100> I can usually determine the last time I went outside
        by using /systemuptime.
        <Axis100> 6 days, 28 mins and 16 seconds

