        #36797 +(143)- [X]

        <psyk0mantis> ick . . . gotta reload windows ME on a comp i'm
        fixing
        <psyk0mantis> i'd rather jump into a bowl of tacks from a
        diving board

