        #36895 +(179)- [X]

        <Nev> I heard a shit is like 1/10 an orgasm
        <Valvados> So theoretically
        <Valvados> If I wank
        <Valvados> I won't have to shit for two weeks

