        #37029 +(31)- [X]

        <Anapaest> raping a brain-eating zombie..
        <Anapaest> yummie
        <Insp-Kamiz-> ahaha
        <Insp-Kamiz-> they have lots of holes in them :D
        <Insp-Kamiz-> like.. gangbang from 20different angels
        <Insp-Kamiz-> CRAP, bad typo... angles

