        #3704 +(39)- [X]

        <gecko__> i just oiled up my cats ass,but now when i try to
        boff him he slips away!
        <gecko__> =[~!
        <Esad> i knew there was a reason i hated cats

