        #37095 +(-23)- [X]

        <robbie-a> you people must talk in here when its like dark for
        me...
        <timmo> if youre asking me, then its been pretty entertaining
        since ive been mocking you
        <timmo> ya because america is like 10hrs behind canada
        <timmo> so when its dark there
        <timmo> its light here
        (sarcasum)

