        #37433 +(109)- [X]

        <XZergonaleashIX> yeah, drowning your fish eh?
        <XZergonaleashIX> in prison talk thats
        <XZergonaleashIX> ugh...
        <XZergonaleashIX> nevermind, thats nasty

