        #37520 +(1378)- [X]

        <@Zen> So Sean's toaster has two settings:
        <@Zen> toast
        <@Zen> and bagel.
        <@Zen> But it's not a switch/
        <@Zen> It's a dial.
        <@Zen> So I guess if your bread is 60% bagel
        <@Zen> this toaster can handle it.

