        #38135 +(125)- [X]

        <@Crimson> Apache + FreeBSD + PHP + MySQL (or PostgreSQL I've
        heard) = WEB SERVER HEAVEN :)
        <%djlaptop> I don't trust anything I didn't spend a lot of
        money on

