        #3828 +(935)- [X]

        <Sylffor> I prefer "blood-engorged mayonaisse cannon" or
        "yogurt slinger"
        <nitrifik_> ok. Sylffor knows too many colorful synonyms for
        'dick'.
        * Sylffor is a homosexual, remember?
        <nitrifik_> you being gay is fine.
        <nitrifik_> I draw the line at "blood-engorged mayonaisse
        cannon".

