        #38425 +(-22)- [X]

        (@Bird2002): wana know how to get free ms keyboards and mice?
        (@suicide6x): how?
        (@Bird2002): do you have a keyboard or mouse now?
        (@suicide6x): um
        (@suicide6x): yeah

