        #3851 +(292)- [X]

        <shin_k> rez is great though
        <shin_k> just because of how insane it is visually
        <shin_k> and w/ a great sound system it will make you CRAP
        YOUR PANTS
        <TURBOMEAT> I don't think I've flat out crapped my pants yet
        <TURBOMEAT> but there may have been some subtle fecal leakage,
        yes

