        #386488 +(420)- [X]

        <KainSularei> ah, bash.org
        <KainSularei> 17037 quotes approved; 13482 quotes copied from
        the top 100 bash quotes pending; 5 original quotes pending

