        #38699 +(881)- [X]

        <Jikg> Might anyone have a CD burner that could answer a few
        quick questions?
        <SinclairC> my CD burner doesn't talk to strangers
        <SinclairC> >:(

