        #3872 +(240)- [X]

        <poste> no, i know this chick with awesome big boobs...2
        actually
        <rox-work> 2 awesome big boobs?
        <rox-work> i should hope so
        <matthardy> like one boob on a chest, is like kinda funky and
        wrong
        <spazzer> nah, poste is confused
        <spazzer> the chick has one huge uniboob
        <matthardy> spazz: ahaha uniboob
        <spazzer> and a unibrow to match

