        #39142 +(256)- [X]

        <Cornell> damn I wish I could have gone to my friends summer
        camp.. 9 guys my age, 18 girls, and another 18 or so a year
        younger
        <Cornell> *18 or so girls
        <Beoulve> Dude.
        <Beoulve> You'd still be a virgin in the end.
        <Cornell> most likely.
        <Cornell> but still, you knever know, and think of all the
        possibilities...
        <Tarl> Yeah..
        <Beoulve> It's possible that you'd die.
        <Beoulve> Horribly.
        <Tarl> "Hey <Insert cornellmun's name here>! Could you go to
        the convienience store and pick up some more condoms for us?
        Thanks!"

