        #392267 +(1894)- [X]

        * kitten has quit IRC (Killed (NickOP (Kill requested by
        kittster)))
        <BlackAIR> kitten got killed??
        <Propagandhi> ALRIGHT, WHO IN HERE IS MASTERBATING!?

