        #396517 +(534)- [X]

        <Cereal_Killer> Dude you may have been pissed, buy thats no
        reason to knock your sister up.
        <Joeytgstk> You're just jealous because you're an only child

