        #39722 +(-50)- [X]

        (This was said after I quoted bash.org)
        <Abyss> I hope these people stay on irc and never venture into
        the real world
        <Abyss> or we will all be in big trouble

