        #39845 +(380)- [X]

        <torm_> fuckin gay school tommorow
        <Avram`> There is school for that?
        <torm_> heh
        <Al-Qadim> torm_'s about to graduate magna cum loudly with a
        BS in catching
        <Avram`> Does that allow you to get more gay sex or something?
        <torm_> hah
        <Al-Qadim> well once he has his degree he can go on to more
        advanced classes like gerbiling and feltching
        <torm_> aw come on now
        <Avram`> I think you've cummed on enough.

