        #40019 +(730)- [X]

        <Tomalak> Trouble is www.bash.org is like porn - you can waste
        hours.
        <Tomalak> There isn't even the finality of an orgasm to tell
        you when to stop.

