        #40509 +(366)- [X]

        <Mosswing> anyone here got berserk series ?¿
        <Mosswing> in DivX format
        <^cell^> i got a boner
        <^cell^> does that count?
        <Mosswing> what is boner ?¿
        <Mosswing> is it good?
        <^cell^> yeah man
        <^cell^> everyone has a boner
        <^cell^> why dont you?
        <Mosswing> how many episodes?
        <Mosswing> i would like it too if it is great :)

