        #4098 +(302)- [X]

        <akh76> Hello, I'm "an ki hong" from Korea.
        <akh76> I want to know The reason Why I'm ven
        <akh76> I'm lacks a Knowledge of  irc
        <akh76> Thank you and I hope to get your reply back soon.

