        #411155 +(236)- [X]

        <Twins> I watched a vesectomy reversal last night
        <Fullauto> eeeh
        <Fullauto> I hate nose surgery
        <Fullauto> it's soooo sick
        <Twins> D:
        <Twins> Vasectomy = genital surgery D:
        * Fullauto runs back to modelling

