        #41169 +(-53)- [X]

        <Warwitch> you speak German? :o
        <travelyan> sure i do.
        * Warwitch nods
        <Warwitch> Jawohl!
        <travelyan> das machine ist nicht fer gefingerpoken und das
        mittengrabben
        <Hoo_Man> get that nazi shit outa here!

