        #41204 +(375)- [X]

        <SchoolyD> if women couldn't talk, i bet we would be living on
        mars right now
        <Islamikaze> yes
        <SchoolyD> but women keep nagging men
        <SchoolyD> "leave those equations alone and mow the lawn!"

