        #414344 +(91)- [X]

        * conundrum takes over bos's mind and makes him buy a mac OS9
        machine instead,
        * conundrum also makes bos reformat and install BOB.
        <SlipperyS> M$ bob?
        <conundrum> Yes, is there any other?
        <SlipperyS> hehe wtf was that program for anyway?
        <bos> insulting your intelligence
        <SlipperyS> I thought that was what windows was for...

