        #41532 +(108)- [X]

        * BassBone finishes all his evening rituals and prepares to
        pack it in
        <Selene> Okay. That was bad timing. I'm reading porn and
        Bassbone is talking about packing it in.

