        #41903 +(560)- [X]

        <Denium> cassy do you mind if i delegate something to ya?
        <Cassy> as long as i can do it in the morning ....i'm totally
        dead .....had a gig earlier tonight and i'm like a zombie lol
        <Denium> wow
        <Denium> i only do like 500mb/day
        <Denium> at most
        <Cassy> a SHOW
        <Denium> ohhhhhhhhhhhhhhhhhhh
        <Cassy> you know ....play music!?

