        #4208 +(47)- [X]

        <JacKnife> well wats a good game to play?
        <bucshott> pocket pool
        <bucshott> ;P
        <JacKnife> i'm an expert at that game
        <bucshott> see told ya it was good

