        #42385 +(193)- [X]

        <Supachikn> square and sony are based in japan
        <Supachikn> and heaps of other game devs
        <Supachikn> and anime
        <Supachikn> and hot chicks
        <Supachikn> and rally cars
        <Supachikn> and nice motorcycles
        <Demigoat> and all night whale-meat buffets!

