        #42691 +(1174)- [X]

        < 12@Great_Teacher_Musashi > damn
        <@Great_Teacher_Musashi > myspacebardoesn'twork 
        <13@Nemian|Stuff > haha
        <@Great_Teacher_Musashi > crap
        <@Great_Teacher_Musashi > Ican'tentercommands
        <@Nemian|Stuff > wth happened to your kb?
        <@CrimsonAngel|AtLibrary > heh
        <@Great_Teacher_Musashi > spilledsodaonit
        <@CrimsonAngel|AtLibrary > l o o k i c a n u s e s p a c e s w
        e e e e e e = )
        *** CrimsonAngel|AtLibrary was kicked by Great_Teacher_Musashi
        ( don'ttauntmeIstillhaveright-click )(  I-n-v-i-s-i-o-n  )

