        #42805 +(-77)- [X]

        <Low> wassup
        * sean estimates the age of Low as 11.
        <Low> uhhh higher
        <sean> liar.
        * Low estimates the iq of sean as 3 maybe 4
        <Low> im amazed u can type
        <Low> let alone breathe

