        #43662 +(1015)- [X]

        <MattV> Have you ever wondered why A, B, C, D, DD, E, and F
        are the letters for bra sizes?
        <MattV> If you've wondered why, but couldn't figure out what
        the letters stood for, it's about time you were informed!
        <MattV> A- Almost boobs
        <MattV> B- Barely there
        <MattV> C- Can't complain!
        <MattV> D- Damn!
        <MattV> DD- Double damn!
        <MattV> E- Enormous!
        <MattV> F- Fake.

