        #43927 +(133)- [X]

        * megamanu1 (megamanu1@=
        Bc7Tefk38.tnt9.pleasantville.nj.da.uu.net) has joined #support
        <megamanu1> help
        <+Spirit_1100> what is the problem?
        <megamanu1> mirc is hard
        <megamanu1> i don't understad
        <megamanu1> an how do you make a bot
        <megamanu1> how do you script

