        #44029 +(107)- [X]

        <Mars_Alien> okey wat am i missing
        <Gandalf> your h key?
        --> jennings1 (jirc@vic-dial-196-31-177-46.mweb.co.za) has
        joined #Highveld
        <Mars_Alien> gulo jennings1

