        #44760 +(347)- [X]

        <fiveiron> where is that new space software
        <fiveiron> that lets you fly through the universe
        <la_haine> i think that's more commonly known as 'LSD'

