        #44807 +(586)- [X]

        <PamelaPeaks> i love when you start at a computer screen for a
        long time and words start to meld...
        <PamelaPeaks> so the "Harry Potter Box Set" becomes the "Harry
        Potter Sex Bot"

