        #45131 +(154)- [X]

        <DarQ> Just think about it... Who would know better how to
        please a man ? A man or a woman ?
        <Sway> damn right
        <Sway> a man
        <Sway> a rough and hairy man
        <Sultan> Your sick, lol
        <DarQ> That's not sick...
        <DarQ> That's being realistic.

