        #45797 +(119)- [X]

        *** Chitwonk (~u6020955@210-54-229-7.dialup.xtra.co.nz) has
        joined the channel
        <Chitwonk> hey chitwonk
        <Chitwonk> are you from new zealand?

