        #45810 +(23)- [X]

        * Loopster just found a SHITLOAD Of Wolf Posters for sale
        <Orionator> ...
        <Orionator> I dunno what it is with Loopy and wolves...
        <Loopster> I like wolfs!
        <Loopster> there tight
        <Loopster> er...cool
        <Alluro95> I am not into wolves the way you are, Loopy.
        <Antipothis> Now loopster sounds like he has sex with
        wolves...heh
        <Antipothis> :P

