        #458504 +(263)- [X]

        <pantherqs> yeah
        <pantherqs> so
        <pantherqs> i got raided
        <pantherqs> mad leet.
        <Thazul> as in raid0, or as in swat?
        <pantherqs> as in
        <pantherqs> my shop got raided. geek.

