        #46167 +(783)- [X]

        <Maxamillion> Im taking this computer class, and it's filled
        with people like me
        <Maxamillion> hardcore gamers
        <Maxamillion> and the teacher asked us to name a type of
        weapon
        <Maxamillion> so my friend said "BFG 9000"
        <Maxamillion> and everyone got the joke
        <Maxamillion> even the teacher
        <Yemen> omg... nerds
        <Maxamillion> i love that class
        <Yemen> :D

