        #46475 +(128)- [X]

        <fahd> stop making fun of my religion.  islam isn't funyn,
        it's serious
        <fahd> now shutup, i have to study for calculus
        <Hat> Fahd, is Allah good at calculus?
        <fahd> >:(
        <Hat> Yeah, I guess not.  He's only good at bomb mak.... I
        mean chemistry.

