        #465591 +(1921)- [X]

        <Robyn> then we realised that james had fucked with the bunsen
        burner
        <Robyn> and set the lab on fire
        <Robyn> penis ensued
        <tempura> ...penis?
        <Robyn> panic
        <Robyn> PANIC
        <Robyn> shit

