        #465691 +(792)- [X]

        Jeff: I got a hug from a girl at work today.
        Vann: cool
        Jeff: No, not really...
        Jeff: She was wearing a shirt that my ex has...the exact one
        Jeff: As well at the matching shoes my ex has...the exact ones
        Jeff: As well as the exact perfume my ex wears.
        Jeff: ....
        Jeff: She must be killed.
        Jeff: I'm not falling for that one twice.
        Vann: lol

