        #46708 +(658)- [X]

        <Spooky42> omg i just stabbed myself in the face with a
        corncob holder thing
        <Funky_> hahahahahahah
        <Funky_> is it bad?
        <Spooky42> its bleeding a little..
        <Funky_> :(
        <Spooky42> i got butter on it too :(
        <Funky_> ok...
        <Funky_> so... WHY did you stab yourself in the face with a
        corncob holder thing?
        <Spooky42> im not sure quite how it happened :(
        <Funky_> wtf
        <Funky_> you don't know how you stabbed yourself in the face?
        <Spooky42> i was eating corn. and it slid out of the corncob
        and i went to slide it in real quick and it didnt line up with
        the previous holes and it slid off into my cheek
        <Funky_> HAHAHAHAH
        <Spooky42> it hurts!
        <Funky_> sorry
        <Funky_> It's just too funny
        <Spooky42> i dropped my corn too!

