        #4733 +(572)- [X]

        <Guilty> Jees its going to be 48 tomorrow
        <Guilty> I thought I was done with waring a jacket
        <Guilty> But apparently not
        <maff> you go outside?

