        #473599 +(6225)- [X]

        Mjordan2nd: If you could be any fictional character, who would
        you be?
        Chris: Spider Man
        Tim: batman
        Sidd: batman
        Mjordan2nd: I'd be god

