        #47464 +(595)- [X]

        (MolsonCanadian) http://www.cnn.com/2002/EDUCATION/11/20/
        geography.quiz/index.html
        (TheOneShamrock) 70 percent cannot find New Jersey, 49 percent
        cannot find New York, 11 percent cannot find the United
        States  <--- THOSE are the scary ones!
        (anticimex) ROFL doesn't the US have schools?
        (anticimex) Only 71% can find the pacific ocean!
        (Moik) Lord save us if THAT'S the Protector of the Free World.
        (Moik) "Quick, they need our help guarding freedom in
        Malaysia!"
        (Moik) Later in Amsterdam...
        (Moik) "Malaysians sure smoke alot of hash!"

