        #47595 +(307)- [X]

        <Kyou|awaying> omfg i almost had a heart attack
        <Kyou|awaying> I FUCKING HATE STUPID ADS WITH SOUND >_<
        <HKR|Paper> LOL
        <HKR|Paper> Especially if it's a pr0n add, and your speakers
        are cranked and your parents are in the room next door
        <Kyou|awaying> my speakers are always cranked =
        <HKR|Paper> They suddenly hear "AH AH AH!"
        <HKR|Paper> "WTF IS THAT?!" they yell
        <HKR|Paper> Uh...my brothers rap cd's.

