        #4799 +(851)- [X]

        <BadM0f0> Hello, this is a Polish virus. Since we do not have
        the technology to create a real virus, please delete all files
        on your home directory.

