        #482546 +(471)- [X]

        <eGagz-Trevor`> i spilt weiner juice in my lap
        <blue[2q]> WHAT?!
        <eGagz-Trevor`> the stuff that comes out of those cans with
        those vienna weiners

