        #482888 +(730)- [X]

        <FarkinWorkin> my dog used to freak out whenever I brought
        home a fresh jar of peanut butter
        <pakman> is that because you let him lick it off your penis
        FarkinWorkin?
        <FarkinWorkin> it was a "she" pakman...I'm no fag....

