        #48501 +(518)- [X]

        Phut: ooh
        Phut: I just had an idea
        Phut: I wanna save up a lot of money...... rent a billboard,
        and just simply put "www.goatse.cx" on it.  Nothing else but
        that.
        Phut: that would own

