        #48629 +(451)- [X]

        <Xellos-san> don't confuse barbecues with hookers
        <Xellos-san> the only way you can tell them apart is to set
        them on fire
        <Xellos-san> if it runs away, it's a hooker
        <Xellos-san> if it stays, it's a barbecue
        <Xellos-san> or a dead hooker

