        #486349 +(1015)- [X]

        <Man_Loner> I had the best masturbation ever today too
        <Man_Loner> I had the magazine open in front of me, at a
        really great picture
        <Man_Loner> My eyes were rolling back in my head
        <Man_Loner> I let out a deep moan
        <Man_Loner> And then the man in the shop asked "Are you going
        to buy that?"

