        #48690 +(397)- [X]

        <Dashiva> "There comes a special time in every young woman's
        life when special things start to happen.."
        <hibbert> every month, for  afew days, its ok to be a bitch
        <Lanfear> ...you men dont know how easy you have it
        <hibbert> whatever
        <hibbert> you dont have to deal with carting around this huge
        piece of meat everywhere
        <Dashiva> hahahhah
        <dogma-> lol
        <hibbert> its like im pregnant, and the baby is hanging
        between my legs

