        #49545 +(180)- [X]

        <BusyChild> im witnessing the building of a porn site as we
        speak
        <BusyChild> i cant wait to tell my grandkids what i did when i
        was 21 the night before thansgiving

