        #49607 +(308)- [X]

        <Antiarc> Ever have one of those moments where you get out of
        the shower, get dressed and all, and then realize that you
        left your webcam on broadcast mode?

