        #496098 +(922)- [X]

        <Mrs_Grima_Wormtongue> My dad once said that we should just
        combine Hanukah, Groundhog Day and Easter.  We spin the
        dreidl, and if it lands on "Nun" Jesus has to stay on the
        cross for 6 more weeks.

