        #496748 +(1875)- [X]

        <ChapelPaige> Oh tell me why, do we build castles in the sky?
        <@Apoc> to make them harder to assault
        <ChapelPaige> ...good point.
        <@Apoc> Lets see you get a trebuchet up here bitch

