        #50266 +(274)- [X]

        (after a netsplit which booted most of the channel)
        <JeremiahSmith> Ha! Empty room!
        * JeremiahSmith dances in his underwear.
        * Just[AFK]Yin () Quit (Ping Timeout)
        * Rhamphoryncus () Quit (Ping Timeout)
        <JeremiahSmith> o_O
        <JeremiahSmith> My dancing cannot be THAT bad.
        * Kazriko () Quit (Ping Timeout)
        <JeremiahSmith> Gahhhh!
        <JeremiahSmith> Fine, fine. I can take a hint.
        * JeremiahSmith stops dancing and covers his underwear.

