        #51234 +(428)- [X]

        *** Martin has joined #Lostones
        <Martin> word
        <roy> indeed
        <roy> but the question is
        <roy> WHICH word?
        <roy> her word?
        <roy> My word?
        <roy> HIS WORD?
        <roy> it all depends...
        <roy> on whose word.
        *** Martin has quit IRC

