        #514109 +(2442)- [X]

        <RobbiePaul> i really wish the redneck neighbors that moved in
        next door would feed their children anti-freeze
        <Nichole> slip it into some popcicles and serve
        <RobbiePaul> "anti" freeze...

