        #514353 +(9233)- [X]

        <Insomniak`> Stupid fucking Google
        <Insomniak`> "The" is a common word, and was not included in
        your search
        <Insomniak`> "Who" is a common word, and was not included in
        your search

