        #515407 +(2682)- [X]

        <KP> the admin just came over and asked me why my desktop
        looks like xp and what the hell i just did to his computer
        <KP> leet hax was not an acceptable answer

