        #52004 +(104)- [X]

        twinturbo: hmm, why is my name green on the right?
        Swinny0: coz it's teelin you that's YOU
        barnz: to show which one is you
        twinturbo: like i don't know?
        barnz: indeed
        Swinny0: some don't!!

