        #525423 +(1361)- [X]

        <uZi`> i got a photographic memory
        <uZi`> :/
        <Grimmeehh> cool
        <Grimmeehh> porn on demand
        <uZi`> mainly for numbers tho
        <Grimmeehh> o
        <uZi`> only ascii porn
        <uZi`> :(

