        #52775 +(1007)- [X]

        <Wealllike> what this "uber" you see so often?
        <timmo> uber - german for over or above
        <Wealllike> I know that
        <Wealllike> I'm german
        <Wealllike> but you write it ü
        <Wealllike> über
        <Inuki> how appropriate. a german being a spelling nazi :P

