        #5317 +(828)- [X]

        <Cutter> you know whats a trip ? when one of your friends in
        high school has to do a speech to the class and does it on
        acid, gets confused and pisses his pants - that owned

