        #53274 +(598)- [X]

        æ BaxterBandito is listening to: [MP3] Joan Jett & The
        Blackhearts - Do You Wanna Touch Me
        (somecrap) someone go touch bax so he'll be happy
        æ BaxterBandito is listening to: [MP3] Divinyls - I Touch
        Myself
        (somecrap) nevermind he took care of that himself

