        #537155 +(1878)- [X]

        <Handy> Japanese scientists have created a camera with  such a
        fast shutter speed,
        <Handy> they now can photograph a woman with her mouth  shut.

