        #537359 +(45)- [X]

        <kingofign> I was talking to a HUGE anti-piracy friend
        yesterday
        <kingofign> and he said
        <kingofign> "Piracy is stealing"
        <kingofign> "You wouldn't steal a wallet, or a purse, or a
        car"
        <kingofign> And I say
        <kingofign> "Dude, you can download cars now?  What newsgroups
        are YOU signed up to?"

