        #544722 +(492)- [X]

        <%Justin> lol
        <%Justin> I've always wanted to ask a girl for a cron job and
        see what they would say.
        <+Steph> probably, WTF
        <%Justin> hmm
        <%Justin> Steph, will you give me a cronjob.
        <%Justin> Everynight @ 2

