        #5447 +(69)- [X]

        <aussie> whats wrong with racial profiling?
        <Jake> Absolutely nothing, as long as it's unbiased.
        <The_Roach> That's a contradiction in terms.
        <JD> I've never been profiled so, I would say nothing

