        #5465 +(196)- [X]

        moose> my resume is SOILD, but I can't get clueless head
        hunters to even fucking return a call
        <moose> "do you have a ccna?"
        <moose> BITCH HAVE YOU READ MY RESUME
        <moose> "we need somone who knows PGB in internet lans"
        <moose> sigh

