        #553209 +(808)- [X]

        <timmo> it blows my mind
        <timmo> that some people want to just be born, grow up, etc
        just in one place
        <timmo> and not go out and explore the world
        <v3dd3r> shutup magellan

