        #553301 +(1307)- [X]

        <EvilBlood> i had a crazy dream last night
        <EvilBlood> my mother barged into my room and started hitting
        my computer
        <EvilBlood> i threw her down, and ended up sniffing her pussy
        through her panties
        <EvilBlood> weird
        «@ tanlin999» so what was the dream?
        <EvilBlood> oh yeah that
        <EvilBlood> well

