        #56107 +(184)- [X]

        CcLpRPG:  it was like, my friend saw a chick at the movies,
        but she had a boyfriend  
        CcLpRPG:  My friend says, screw him  
        CcLpRPG:  I say, you screw him, i'll screw her

