        #56333 +(267)- [X]

        <gwend> my 6 key doesnt work half the time ><
        <Kiri> my CTRL key types a ` when i press it
        <Kiri> lol
        <gwend> lol
        <Kiri> and my numpad opens internet explorer
        <Kiri> or my computer
        <Kiri> depends on which number lol
        *** Kiri has quit IRC (Read error: 54 (Connection reset by
        peer))
        <EvilCouch> guess she pushed the wrong number

