        #579865 +(2050)- [X]

        Skylos : dang its irritating when I get phone calls and they
        just hang up
        Triggur: call them back with caller ID and then hang up!
        Triggur: ever get a Heavy-Breathing call?
        Triggur: I did once and I told him, "oh god, that is SO hot. 
        can I jack off too?"
        Triggur: turns out it was my mom winded from walking upstairs.

