        #588228 +(2093)- [X]

        <Corsair> My ex-wife pulled my kids out of school because she
        wants to home-school them.
        <Dolphin_24994> And this is bad?
        <Corsair> Damn straight. That fucking idiot couldn't teach
        someone how to pour water out of a bucket with instructions
        printed on the bottom.

