        #595616 +(554)- [X]

        <Deja> gay, I can't use my GameSpy ID because it has an
        accented e in it
        <Ear> hahahahhah
        <Ear> That's what you get for being pretentious. :D

