        #59649 +(268)- [X]

        * mod7t9z730 has joined #sojaHASH
        <mod7t9z730> ehe lets spam these soja lamas ;)
        <mod7t9z730> oops wrong chan
        <+CHiPiTA> lmao
        * sH_Lime sets mode +b *!*@pD9E7C066.dip0.t-ipconnect.de
        *** mod7t9z730 has been kicked by sH_Lime (wrong chan)

