        #599567 +(443)- [X]

        <Bran> yesterday at work I asked my boss "What should I use as
        an icon to show 'loyalty'?"
        <Bran> and one of my collegues says with a straight face:
        "Well, whatever you use, make sure it's not an icon of a
        woman."

