        #60120 +(118)- [X]

        <Blinxuh> damnit
        <Blinxuh> I can't order any of this shit because of these damn
        economy fluctuations
        <Spudnewt> fluctuations? fluck chu asians?
        <Spudnewt> well, fuck you too, americans

