        #60200 +(75)- [X]

        <cjj> DUDE! remember that uber fine hunnie 5'4 110 pounds
        hazel eyes c cup i told you about?
        <Bi0hazard> the chick who got naked?
        <cjj> no no :)  that is kayli! im talking about "vanessa" well
        she turned out to be uber nasty! 5'4 210 pounds !!! im done
        meeting girls off the internet!
        <cjj> i had to like run to the milkshake shop and lead a trail
        of shakes away from my house
        <cjj> than i made a quick gettaway in the car and left her ass
        like 5 miles from her home
        <cjj> grrr brb kayli just called :P  maybe i wont retire from
        this net pimping just yet

