        #6054 +(414)- [X]

        <kingmob> someone broke into our apartment once
        <kingmob> he didn't take anything
        <kingmob> he left a ten dollar bill
        <Guyver3> did he leave money?
        <Guyver3> hahahaha
        <kingmob> i am *so* not shitting
        <kingmob> that ruined my whole week
        <kingmob> plus, my dipshit roommate spent the ten bucks

