        #6056 +(379)- [X]

        <Guyver3> koolaid time
        <Guyver3> what today
        <Guyver3> strawberry kiwi
        <Guyver3> strawberry kiwi lemonade
        <Guyver3> mountain berry blast
        <Guyver3> or blood of the preacher's daughter?
        <kingmob> the blood one.  definitely.

