        #60904 +(-609)- [X]

        <Squiggle> Also:the bottom ones [on bash.org] are some of the
        best
        <Squiggle> They're all about niggers
        <Squiggle> Niggers  =  funny
        <Sulzanti> Not if you have to be in smelling distance

