        #610712 +(849)- [X]

        <Phatt_One> crap is disgusting
        <syntax> hey dont bad mouth crap
        <syntax> im a plumber
        <syntax> if it werent for crap, i wouldnt be able to feed my
        family

