        #6116 +(1654)- [X]

        <kegpin> I gotta go.
        <Krebstar> ok, get better soon, keg.
        <puppyfish> aww... is keg sick?
        <Krebstar> nope. I just think he could be better than he is.

