        #62079 +(108)- [X]

        <zX-ArcH> my friend has a virus, he runs windows XP, every
        5-10 minutes his comp will shut down automaticlly, he must
        create new users just to even get on! if u know what kind of
        virus this is , or if u can help in anyway please PM ME
        <@CitizenErazed> it's called 'windows xp'

