        #62269 +(160)- [X]

        <Mdar> I see ads for anti-depresents
        <Mdar> side effects, constipation and insomnia
        <Auri> somehow, I think constipation and insomnia would
        contribute to depression...
        <Mdar> yeah
        <Mdar> do I want to make love with a knife, or not sleep and
        shit...

