        #62419 +(436)- [X]

        <pHluid> It usually takes like 30 days to reroute a fucking T1
        line
        <mef> why are you telling us?
        <pHluid> Just mentioning
        <pHluid> Didn't mean to interrupt your meaningful fucking
        idling.
        <pHluid> So sorry.
        <mef> Apology accepted.
        <l0st> we all make mistakes

