        #626676 +(1640)- [X]

        ShamanMumboJumbo: Dude, I hate AIM Triton but I had to get it
        because all my friends have it and I can't share files
        otherwise
        ViewtifulDom: Peer2Peer Pressure?

