        #62882 +(938)- [X]

        <+Ivy[OmNi]> so.. you come here often? Lemme buy you a drink
        <@Warlock[OmNi]> im a minor
        <+Ivy[OmNi]> it's all good, I am a pedophile... I have candy

