        #629927 +(1646)- [X]

        Vfirthd: someday, I'm going to be great.
        Vfirthd: someday, I will have all the money I want and no
        financial trouble
        Vfirthd: and I'll have a great, big house with a laptop and
        high fi stero systems
        Vfirthd: oh, and I'll have a job that I love so much, and make
        a good profit from
        Vfirthd: and at that great job that I love, I'll find the
        lovely woman of my dreams...
        Vfirthd: yeah...someday...
        GeniusChef: You work at a McDonalds, don't you?
        Vfirthd: Burger King

