        #638328 +(474)- [X]

        <zacwhite> they should do rock paper scissors over mail
        <schwatoo> they do
        <zacwhite> really? sweet.
        <schwatoo> it is called paper, paper, paper though

