        #649649 +(359)- [X]

        <iND-RLM> i heard a good comeback by my friends 13yr old
        brother the other day
        <iND-RLM> his sister was talking it up
        <iND-RLM> and he just comes in and says
        <iND-RLM> u know if i made a mould of you out of shit.. it
        would still only be as half as full of shit as you really are

