        #651378 +(638)- [X]

        ThPhox: Dude...there's free Cinemax, and there's porn on.
        ThPhox: AAAAnd it's anal.
        ThPhox: *does the field goal sign*
        SNAPEK1LSDMBLDOR: He shoots, wrong goalll!!!!!!

