        #661004 +(436)- [X]

        <Sakireth> Infinite can't be explained by math or logics
        either.
        <Sakireth> Well, maybe a little by logics..
        <bob-E> just get 8 drunk, and then u got infinity

