        #6625 +(176)- [X]

        <@Greg> how do i start apps automatically when i log into os
        x?
        <@desnarf> hit it with a hammer
        <@desnarf> but you need a robot arm for it to happen
        automatically

