        #667762 +(910)- [X]

        <Ghaleon> I'm a programmer for a company that ports english
        made games to the japanese market
        <PcChip> Make one say "ALL YOUR BASE" in japanese to get back
        at them.

