        #667811 +(157)- [X]

        * Digi disconnects
        <Eliza> you're still here
        * Digi has disconnected
        <Eliza> you're still here
        * Digi has disconnected
        <Eliza> you're still here
        * Digi has disconnected
        <Digi> I HAVE DISCONNECTED DAMMIT D:

