        #6714 +(644)- [X]

        <_git_> hey folks, what does @ mean in front of someones nick?
        <thorn``> The @ symbol identify's the channel operators..
        Chops have extra commands for control of the room
        <_git_> does it mean that persons is a sad wanker who spends
        his life on irc, has no real friends, and prefers to chat on
        here than in a pub?

