        #673012 +(389)- [X]

        <Dezner> that was the bitchiest security sticker I've ever
        removed from a CD case :x
        <Blackjak> what CD?
        <Dezner> Excel Saga Great Experiment 2 :O
        <Blackjak> ...I was going to say something about whatever band
        being hardass
        <Blackjak> but fuck man, get laid

