        #6748 +(523)- [X]

        <josh> usually when guys shoow me their penises I try and
        fondle them
        <penney> whoa josh
        <penney> are you gay?
        <josh> no, I'm just friendly

