        #675020 +(563)- [X]

        <Pseudoof_The_Goat> can somebody help me?
        <Pseudoof_The_Goat> i know linux is more secure
        <Pseudoof_The_Goat> but i can't run linux because i still need
        windows
        <Pseudoof_The_Goat> i want to install the linux version of
        firefox on windows
        <Pseudoof_The_Goat> anybody know how?

