        #676621 +(508)- [X]

        <Cob`Onsite> unfortunately when i leave here, i must go to a
        church with a 90 year old secretary
        <Ridgey_wtf> church? what's that?
        <ragtop> its similar to a mental hospital, but with less
        physical restraints

