        #678774 +(654)- [X]

        <siddy> stupid internet
        <mutley> whats up with it? works fine for me :|
        <siddy> its slow as hell
        <siddy> im going to call them up and ask for it to be
        restarted
        <mutley> the internet?
        <siddy> yeh...

