        #6860 +(177)- [X]

        * Alan wasn't aware Rap was an action figure.
        Rapunzel452: Oh, yeah.  Everyone wants a small plastic me
        adorning their shelf.
        AlecWire: Or a large plastic blow-up you...

