        #693565 +(351)- [X]

        <Ant_> yay. my loan came through. my bank balance is no longer
        preceeded by a "-".
        <SC> You should've tried depositing a negative amount of
        money.

