        #698223 +(2450)- [X]

        <zerco> we should have our own quote on bash
        <Phaet> dude it's easy
        <Phaet> every quote which contains a word "masturbation" gets
        accepted
        <Phaet> see? we're on bash already :)
        <zerco> hi mom!

