        #70310 +(109)- [X]

        <@lemming> i had my box for a while, and had to have
        replacement HDs twice, since they kept getting errors on
        them... the second time they sent a different make, 60gig,
        instead of the 40gig i had before... and it's noisy as fuck :/
        <@lemming> still, if i turn my death metal up load enough i
        can't hear it, and that allows me to have 20 gigs more death
        metal than i could have had before... ;)

