        #7088 +(181)- [X]

        <Naivete> I wouldn't be surprised if xrg is down for good.
        <Soul|gone> it has been 24 hours.
        <Soul|gone> that is a pretty good indication that it went bye
        bye
        <Naivete> that would make me rather sad.
        <Naivete> not all that sad, mind you.
        <Naivete> but still pretty sad.
        <Damarr> Just sad enough to make you feel sad
        <Naivete> exactly

