        #713056 +(468)- [X]

        sionanomics: know anyone that knows loads about cars?
        Teh Supreme Weez: Yeah.
        Teh Supreme Weez: My mate Jeeves.
        sionanomics: he online?
        Teh Supreme Weez: Yeah.
        Teh Supreme Weez: www.ask.com
        sionanomics: :(

