        #71434 +(590)- [X]

        *** anonimis has joined #kdl
        <anonimis> join #5fm
        <orbit> erm...
        <orbit> what?
        *** anonimis was kicked by orbit (dont advertise in here)
        <Quench> lol
        <Quench> he missed the /
        <Quench> you moron

