        #715722 +(1167)- [X]

        <@Rize> hmm nice, after installing IE7 and booting, I got 4
        messages saying the system has recovered from a serious
        mistake.
        <@Rize> is windows telling me something here? :D

