        #71672 +(132)- [X]

        <@madCoder> now its time for me to go raid my roommates food
        <@madCoder> :D
        <@iota> lol
        <@ploppity`away> lol mad
        * @iota has a huge chest freezer with some goodies
        <@iota> come raid it
        <@ploppity`away> iota: pm
        <@madCoder> :O
        <@iota> i just got a bunch of buy one get one free ice cream
        too
        <@JaZz0r> eyes are blurry
        <@JaZz0r> [Sat:3:41:13a] * iota has a huge chest
        <@ploppity`away> woah
        <@JaZz0r> did you say anything after that?
        <@madCoder> lmao
        <@iota> FREEZER
        <@JaZz0r> "with some goodies"?

