        #7268 +(62)- [X]

        ( `46and2   ) i've learnt alot about getting a woman off...
        it's not that hard. i even convinced my friend to show me
        where the effing g spot is... i tried it on my g/f and all
        this clear shit came out

