        #72922 +(358)- [X]

        <myne> has anyone else seen the mpeg of tubgirl?
        <myne> It is the closest I have ever come to throwing up on a
        screen
        <myne> it is sooo much wronger than the jpeg
        <myne> it was in my sisters inbox of all places
        <@toe2toe> a) you dont have a sister
        <@toe2toe> b) you ARE a sister
        <@toe2toe> c) i hate you
        <myne> I'll opt for C as it is the most correct answer
        <@toe2toe> they werent options

