        #72944 +(1264)- [X]

        <Mojokoko> phew... just jogged .6th of a mile
        <@SJr> Mojokoko is that 1 and 2/3 miles?
        <MarysKid> math not your major SJr?
        <@SJr> actually it is :)
        <MarysKid> LOL
        <MarysKid> um... OK
        <@SJr> that could mean 60% a mile, which would be wierd, or
        more accurately 1/.6
        <@SJr> which works out to 5/3
        <@SJr> since when someone says they jogged a 6th of a mile
        they jogged 1/6 miles, a 10th of a mile is 1/10 miles. So it
        strikes me that .6th of a mile is 1/.6
        <Mojokoko> bah...
        <Mojokoko> ill kick your mensa ass to alaska

