        #73065 +(223)- [X]

        <SandLev> I keep those empty cardboard boxes that used to hold
        blank cd-r's... put the pr0n in those...
        <SandLev> nobody thinks to search blank cd-r boxes for actuall
        stuff
        <Zoogle> except someone who is looking for a blank cd.. :/

