        #735628 +(763)- [X]

        Jeff: I love microsoft office
        Eric-san: I love girls, weirdo
        Jeff: then get a girlfriend
        Eric-san: I never said they love me
        Jeff: there is always someone out there.
        Jeff: always
        Jeff: even adolf hitler had a girlfriend...c'mon
        Eric-san: Best. Justification. Ever

