        #7392 +(831)- [X]

        <Dane> i picked ryk up one night when he was completely
        trashed
        <Dane> and he was looking like spewing
        <Dane> so i reminded him of my car spew rule
        <Tippytoes> which is?
        <Dane> "if you hurl you pay me $150 and you have to clean it
        up"
        <KKKBitch> heh
        <Dane> and he looked in his pocket
        <Dane> and goes
        <Dane> "I can cover that"
        <Dane> "lets go get curry"

