        #7419 +(625)- [X]

        <elite_chaR> butcher im sitting like right behind you at
        lanwar :D
        <elite_chaR> SO NO FUNNY BUSINESS
        <elite_chaR> NO WEIRD NOISES
        <elite_chaR> NO WEIRD SMELLS
        <elite_chaR> NO WEIRD SPELLING
        <butcher> dude, too late, I just f4rt3d
        <butcher> that's a wierd noise, a weird smell, and a weird
        spelling.

