        #743281 +(133)- [X]

        < RedTee> Alright but i still dont have an answer on my second
        and last question
        < nazgjunk> RedTee, you ask a question about DOS'ing with
        ping, without knowing what ping is
        < RedTee> its not what im asking FFS
        < RedTee> DO I need dos to preform a dos attack!?!?!?!?!
        < einz> YES, don't you see name?
        -!- RedTee [insurgent@HTSUser-4149B6F9.adsl.wanadoo.nl] has
        quit [Quit: alright THANKS
        FINALLY!!!!!!!!!!!!!!!!!!!!!!!!!!!!!!!!!!!!!!!!]

