        #75249 +(688)- [X]

        <CyberMind> ive been programming and using computers since my
        old days in the womb.
        <CyberMind> umbilical ethernet
        <SR71Goku> how fast do you get on it?
        <SR71Goku> I'd imagine at least 1gigabit/s
        <CyberMind> actually quite slow.
        <CyberMind> network was flooded with protein and nutrient
        packets.
        <SR71Goku> LOL...
        <SR71Goku> "Daddy once DoSed my connection..."
        <CyberMind> ok im ending it right there.

