        #75382 +(503)- [X]

        * maria pokes lisa
        * maria pokes steven
        * maria pokes dana
        * dana deflates
        <maria> hmm
        * dana pbfbpfpbpfbf's around the room
        * maria connects dana to an air pump
        * dana recomposes

