        #756642 +(1605)- [X]

        <SaxxonPike> shit
        <SaxxonPike> I turned in a paper today
        <SaxxonPike> and just now realized the title said "American
        Herpes"
        <SaxxonPike> instead of "American Heroes"
        <SaxxonPike> fuck

