        #75683 +(665)- [X]

        <chem0stor> they called it PMS because mad cow disease was
        already taken
        <Walty> Quoting bash is like masturbating, people know you do
        it.

