        #760798 +(-227)- [X]

        <+TrailMix> don't bugs always have wings?
        <+Inca> centipede?
        <@rowsdower`> centipedes do not have wings
        <@rowsdower`> thank god
        <@rowsdower`> i would just shoot myself if they did
        <+Jack> jesus
        <+Jack> "HAI DUD WHATS UP"

