        #76194 +(141)- [X]

        <|ReBeL|> notice how fake rip off sellers always have a nic
        that has something to do with what they are trying to "sell"?
        * Resident0 is now known as HotBooty
        <HotBooty> i dont know what you mean...

