        #76579 +(9)- [X]

        Schlik: i saw your mom
        LckyLuciano8: where?
        Schlik: naked so did adam, we were watchin
        Schlik: and dont call us stockers
        LckyLuciano8: stockers?
        LckyLuciano8: or stalkers?
        Schlik: hey fuck off

