        #766028 +(-80)- [X]

        <surge[dd]> I'm Iraqi
        <surge[dd]> I'll put a bomb in your mailbox
        <tenks> I don't drop bombs
        <tenks> I drop tanks
        <Thrasher`work> yeah septic tanks
        <Thrasher`work> cuz you're full of shit

