        #7692 +(1246)- [X]

        <evilmarq> my fingers smell of garlic
        <Rawr> Where have you been sticking them?
        <evilmarq> up my arse
        <Rawr> Your arse smells of garlic?
        <evilmarq> yes
        <Rawr> Why?
        <evilmarq> i put garlic up my ass

