        #77029 +(847)- [X]

        <Dj|Gallow> TUNE IN
        <Dj|Gallow> GOD DAMN IT
        <IntrepiD`GNR> Dj|Gallow: we have children present
        <Dj|Gallow> sorry
        <Dj|Gallow> TUNE THE FUCK IN KIDS

