        #770965 +(1101)- [X]

        <@G3_> Half of all adults in the United States say they have
        registered as an organ donor, although only some have
        purchased a motorcycle to show that they're really serious
        about it.

