        #771141 +(945)- [X]

        < lithium> btw, i'm selling a CD-RW drive if anyone's looking
        for one
        < atlas> Damn. It's a pity you didn't ask me in 1997, I'd have
        been interested.

