        #773253 +(338)- [X]

        <Sea_Bass> Hahaha, by the way, guys, how awesome is this:
        <Sea_Bass> I went to the snackbar with a couple of mates today
        <Sea_Bass> and while sitting there, this truck drove by
        <Sea_Bass> And I was like "Wow, that's a loooong truck"
        <Sea_Bass> so it had passed, and I looked over my shoulder,
        and in doing so, I caught the license plate
        <Thomp> was it long cat being moved?
        <Sea_Bass> which was 90-TL-DR

