        #77486 +(1235)- [X]

        <SolidFlam> I can see the day that I type here "Ok, I'm going
        to watch Reloaded"
        <SolidFlam> Bastard wacko will probably download it and then
        give us spoilers
        <[wacko]> Neo dies!!
        <[wacko]> Trinity has sex with Morpheus!
        <[wacko]> The Oracle was fake!
        <StarmanDX> Morpheus is a woman!
        <[wacko]> Agent Smith is back!!
        <[wacko]> Zion is hacked!
        <StarmanDX> Jar Jar Binks has a cameo!
        <SolidFlam> Bullet Time is lag

