        #7852 +(240)- [X]

        <+HMetal> isn't it wierd how the obvious things trip you up
        and the complex things are easy? LOL
        <+_underdog> in other words girls are obvious and masturbating
        is complex

