        #78798 +(582)- [X]

        <DopefishJustin> I just downloaded "Microsoft Visual C++ 6.0
        Standard Edition.exe" off WinMX and it's actually a country
        music MP3 :/
        <DopefishJustin> -=[JustinBot]=- Now playing: [EXE] [Microsoft
        Visual C++ 6] [3:31]
        <DopefishJustin> I should have realized when I noticed it was
        5MB

