        #80147 +(174)- [X]

        Quit» (ZoK) (ZoK@vw22962.iprimus.net.au) (Exit: I LIKE TO GO
        DOWN TO THE DOG POUND AND PRETEND I'VE FOUND MY DOG, THEN I
        TELL THEM TO KILL HIM ANYWAY BECAUSE I ALREADY THREW AWAY ALL
        HIS STUFF. DOG PEOPLE SURE DONT HAVE A SENSE OF HUMOUR.)

