        #80710 +(124)- [X]

        <jillium> oh, yeah, I think I remember that site.  Literary
        criticism and essays, right?
        <anomaly> heh, well it was a personal site about a teen
        wanting a boob job.

