        #8100 +(671)- [X]

        <meta> blegh
        <meta> the internet is bad
        <meta> bad bad bad
        <meta> I tried to talk to a woman
        <meta> but she sent me nude pics instead
        <meta> I didn't want them
        <meta> but I took them out of courtesy

