        #81206 +(88)- [X]

        <Giygas199X> Do you ever just sit on the toilet, and try to
        imagine the shape your shit is gonna be by the way it feels
        while you squeeze it out?
        <Majik989s> all to often
        <Giygas199X> It's fun.  I just impressed myself.  It was much
        bigger than I imagined.
        <Giygas199X> My grandma's gonna have to unclog the toilet
        tonight.

