        #81378 +(301)- [X]

        <Gwuffy> yay getting new linkin park album
        <CoRDS> are you about to break?
        <Gwuffy> nope
        <Gwuffy> but im one step closer
        <CoRDS> thats way too much angst for one person
        <devkev> he needs a little room to breathe

