        #81910 +(57)- [X]

        <@Campbell> do you think he/she/it understands anything we're
        saying?
        <@Campbell> LIke if I said...
        <tiny> Hmm..
        <@Campbell> small_bee: God hates you .. your mother and father
        hates you... THE WORLD HATES YOU
        <@Campbell> DO you think he/she/it understands?
        <tiny> S/he/it just might =)
        <small_bee>  yeah ,i love him forever
        <tiny> It's fairly direct
        <tiny> ..
        <tiny> Ok.
        <tiny> Maybe not

