        #8210 +(494)- [X]

        <vino> when we first got our chickens
        <vino> we got all these differant ones
        <vino> and some of them fighted
        <vino> and no jokes
        <vino> one of them
        <vino> bashed the fuck out of another one
        <vino> and did a victory dance
        <nim-zero> serious man
        <nim-zero> go to narcotics anonymous

