        #82110 +(36)- [X]

        <NES> after 9-11 I was expecting Oasis to release a statement
        like "While we regret Blink-182's direct terrorist involvement
        in the incident, we plan to hunt them down like the muslim
        dogs they are"

