        #82166 +(185)- [X]

        <MonkeyFlippers> Anyone know the capital of Croatia?
        <gho5t> who cares?
        <[steev]> MonkeyFlippers; google.com does
        <MonkeyFlippers> Who cares, gho5t?
        <gho5t> aww did i hurt your feelings?
        <gho5t> i'm sorry i care
        <gho5t> let's go look together
        <gho5t> i'll meet you at google

