        #82197 +(662)- [X]

        <berger> i suggested to mojo, we go on a double date with
        eachothers sisters
        <berger> he said no
        <Zardoz> how old is his sister?
        <berger> well
        <berger> hmm
        <berger> i suppose thats why he said no.

