        #82218 +(124)- [X]

        <astynax> i'm gonna install icq and look for some hoez
        <deformated> hoez dont even know what irc is
        <deformated> only in other countries do females use it
        <astynax> ICQ, not IRC
        <deformated> ahh it might help if i read things
        <astynax> i heard it helps

