        #8283 +(441)- [X]

        <Silent|Study> These Christian rock ads on tv are so pathetic
        <Silent|Study> Its like they assume people are going to
        suddenly think "OMG! JESUS! I never knew!

