        #828823 +(-107)- [X]

        <Aenima> if i close my thighs forever......... will it all the
        remain the same??????????
        <Alerik> nope..someone will use a pry bar when you hit the
        morgue

