        #8330 +(343)- [X]

        <AgntBukk> I played grand theft auto 3 the other day.
        <spacetwin> how was it!
        <AgntBukk> I beat up some chick.
        <AgntBukk> and then I kicked her repeatedly in the head until
        she died.
        <spacetwin> haha
        <AgntBukk> so, all in all, I was happy with the experience.

