        #835889 +(1244)- [X]

        (~bati) how is that thing called
        (~bati) where some fat chicks takes a photo of herself where
        only face is shown
        (~bati) or taken from some fucked up angle so she doesn't look
        ugly?
        (p00h) myspace

