        #836 +(1857)- [X]

        Hambone on #ramen #gaydads4sons #noodles
        <blazemore> ash
        <blazemore> get out of that gay channel, now
        *** Hambone (shazam@24.gate3.yokota.attmil.ne.jp) has left #
        ramen

