        #83650 +(237)- [X]

        [ @^duckman^ ] haha i remember when i was 15 we got this guy
        to get us a keg
        [ @^duckman^ ] then he said ok i want 20 bucks for you to
        borrow my tap
        [ @^duckman^ ] we had no idea what that is
        [ @^duckman^ ] so i said we have one
        [ @^duckman^ ] that sucked

