        #842650 +(386)- [X]

        <Helen> Well my husband never yells at me
        <Helen> Neither he swears nor say rude stuff to ppl
        <Helen> And he almost never stays late by computer
        <Helen> And he never cheats on me and never goes to that
        horrible drinking places like pubs and stuff
        <Helen> Isn't he great?! ^_^
        <DialSoft> Hmmmm..........
        <DialSoft> Try poking him with a stick
        <DialSoft> He seems pretty dead

