        #844663 +(501)- [X]

        < Laura> I used to have a preserved human penis in a jar.
        < Laura> It was lost in a move.
        < Laura> This made me sad until someone pointed out that that
        means that SOMEONE moved into a house and found a human penis
        in a jar.
        < Laura> This makes me feel better.

