        #84780 +(288)- [X]

        <deathazre> don't think this quite applies to twish, but
        <@neotek> can you imagine how many neck injuries occur each
        year from camwhores with small tits trying to lick their
        nipples?
        <AngelPHiSH[girl]> *lmao*
        <AngelPHiSH[girl]> i cant lick my own nipple :(
        <Nemessis> can i?
        <AngelPHiSH[girl]> sure ^___^
        <neko> i can lick my nipple
        <Nemessis> leet
        <neko> takes ages sewing it back on though

