        #853 +(500)- [X]

        <hypr> 0h shit ash
        <hypr> yer roommate is offened by women?
        <hypr> haw he am gay
        <hypr> j00 have sex wit em?
        <hypr> ash dat page am mad sl0w
        <Ash> Yah.
        <brazemore> hypr was taught defunct english as a child.

