        #85742 +(97)- [X]

        <SLIMMTHUG> whats that link 4 that site
        <SLIMMTHUG> where its alot of little sites
        <SLIMMTHUG> jumpin around on the screen
        <SLIMMTHUG> u click it
        <SLIMMTHUG> and these lil windows
        <DooD> http://www.catholicninjas.org/superfuntime <-- try
        there, see if they have it
        <SLIMMTHUG> aint that the thing?
        <DooD> nah
        <DooD> it's a site that links to it
        <SLIMMTHUG> COTDAMN U DOOD
        <SLIMMTHUG> THAT WAS IT
        *** SLIMMTHUG (nosrevia1@AC868011.ipt.aol.com) has left #cnn

