        #85870 +(577)- [X]

        <Asuka_Aogiri> I mean, when I pet my cat while she's in heat,
        I think to myself 'This is the closest I'll get to touching a
        horny female in my entire life...cool.'
        <Shinra> You stroked that hot pussy, eh?
        <Josh_Aogiri> ...that's the most disturbing thing you've ever
        said.
        <Asuka_Aogiri> Totally.

