        #8620 +(622)- [X]

        <Cyride> the other day i was in the mall with my wife and we
        pass by a pictuer of two girls that are in the playboy bunny
                  suits and my wife says i bet you wished i look like
        that... what is someone supposed to say to that? is "duh" the
                  proper response to that?

