        #863010 +(1059)- [X]

        <Ambrosh> as a philosophy major I made sure that a job would
        be opened for me after college
        <Kin68ling> until people realized that they can pump their own
        gas?

