        #8668 +(10)- [X]

        <cryterion> hooker fucking is an art.
        <cryterion> you have to be able to do it with one arm up
        <cryterion> and shave her pubes
        <cryterion> while doing your business through shaving cream.

