        #872 +(406)- [X]

        <LkTruth1> Hmm, I haven't realized until lately that Zophar is
        using ZD to bitch about his life.
        <BlackDeTh> "9/14/99 - VGB 4.5 is out, I'm still a virgin."

