        #877115 +(277)- [X]

        WiTriDi: hmm so he got even more raged than you
        Searanger: k thnx bye
        WiTriDi: ??
        WiTriDi: lol??
        WiTriDi: your leaving me
        WiTriDi: i will not stand for this
        WiTriDi: how can we keep our relationship alive
        WiTriDi: if you keep ignoring me
        WiTriDi: are you even listening
        WiTriDi: GOD I DONT EVEN KNOW WHY I TRY
        Searanger: i go to the washroom for 1 minute
        Searanger: and u serve me divorce papers

