        #87809 +(1136)- [X]

        <p_digga> oh god i'm dumb when i'm stoned
        <j3r3miah> why
        <p_digga> i lost something on my desk, and i couldn't find it,
        so i moved my ssh window on my computer desktop to see if it
        was under it
        <j3r3miah> oh god

