        #8805 +(387)- [X]

        <HailBrak> "Oh shit! I got the shoe! I'm so invincible! Oh!
        Eat it, you bitch! You don't understand! I got the damn SHOE!
        It's the shoe! And look at how cute I am with my stupid
        plumber head poking out of the wind up sock! I am the cutest
        invincible shoe rider ever! Mario! Mario! He's in the ULTRA
        green SHOOEEE!"

