        #88378 +(1073)- [X]

        <eViLegion> my brother was using Word, trying to edit the
        format of his text, and the bloody paperclip turns up
        instead... his voice command to it "piss off you little
        shit"... it deleted 2 paragraphs of text

