        #904755 +(1355)- [X]

        <~Cor> you know though
        <~Cor> how sometimes you get in that mood where romance is out
        the window and you just want to shove your dick in something?
        * ~Cor is in one of those moods
        <&K> I call that mood "awake".

