        #9057 +(335)- [X]

        The-ill-man- *beat kicks in*  yo yo  you know i be somkein
        some grass, tappin some ass, while rippin on bowls, and hittin
        on hoes
        -cyanide- ur smoking weed while fucking girls while smoking
        weed while trying to pick up girls.. nice rap..

