        #913 +(540)- [X]

        <matt`> dear god freshmeat looks like ass
        <matt`> probably making use of the html 5 <ass> tag
        <matt`> <ass tables><hard to read text>blah blah blah</hard to
        read text><more ass tables><gayness></more ass tables><some
        gay color></gayness><ass tables>

