        #913498 +(2194)- [X]

        <Fattie> I'm fuckin hungry gonna go make some food
        <Fattie> if I DC call 911, I probably burned down the kitchen
        <[FKU]Greycloak> "Hello? 911? I'd like to report a fire at
        74.12.122.225"

