        #9143 +(21)- [X]

        <waffle> <+SKubber> as if I'd remember all my one night
        stands. <+SKubber> hehehe maybe I COULD remember them by smell
        <waffle> #bearcave
        <Proz512> He remembers by the smell of one's colon

