        #917 +(852)- [X]

        e l i t e m r p: afk, working on my invention
        n e r d b 5: invention.....uhm, whats it do?
        e l i t e m r p: converts piss into drinking water
        e l i t e m r p: so far, still tastes yucky

