        #9205 +(478)- [X]

        <[empathy]> i found out the other day that i was in the local
        newspaper
        <[empathy]> under a title along the lines of 'new station
        security cameras paying off

