        #93944 +(151)- [X]

        (doggie^): i went shopping earlier and bought lots of heavy
        stuff, so when i packed all the stuff i made sure all the bags
        weighed the same
        (doggie^): then when i went to leave i realised i'd packed
        three bags
        (doggie^): :(

