        #946154 +(86)- [X]

        <RATA> FUCKING PISSED OFF
        <SpaceCadet> BREATHE
        <SpaceCadet> in through your nose, slowly exhale through your
        mouth
        <SpaceCadet> BREATHE
        <SpaceCadet> BREATHE
        <RATA> IN THROUGH MY BONG
        <RATA> OUT THROUGH MY MOUTH

