        #954171 +(297)- [X]

        <Cob|afk>: fellows
        <Cob|afk>: let's chill
        <Cob|afk>: and be friends
        <jasper>: why
        <Cob|afk>: because i'll fucking stab you if you don't

