        #965386 +(-333)- [X]

        <modp> off work now, time to get scotched up
        <jas0n> drunk yet?
        <modp> BUCK'S ABORTION CLINIC SPEAKING. YOU RAPE 'EM, WE
        SCRAPE 'EM. NO FETUS CAN BEAT US.
        <jas0n> is your liver okay?
        <modp> i'd say it's an approximate physical manifestation of a
        metaphor for my life

