        #97955 +(379)- [X]

        <Zer0_-X-> animeology - the study of japanese animation
        <ecat> u must study it quite well
        <Zer0_-X-> yah
        <Zer0_-X-> i've got phd :D
        <Goddess> permanent head damage?

