        #98450 +(7902)- [X]

        Jakefeb3: do you know a turtles only weakness?
        AvatarOfSolusek: no
        AvatarOfSolusek: well
        AvatarOfSolusek: thier slowness
        Jakefeb3: there weakness is they cant roll over when they are
        on their backs
        AvatarOfSolusek: lol
        Jakefeb3: now i have a plan
        Jakefeb3: if i duck tape 2 turtles together they are
        unstoppable

