        #99967 +(722)- [X]

        * @Super-Vipeo [Super Mario Brothers Theme Song-Nintendo] -
        [0.65mb; 1:24; 64kbps; 44khz; mono]
        <@Cockroach> I saw a quicktime movie of a guy playing that on
        the piano
        <@Cockroach> and about every other mario song
        <@Cockroach> was kind of scary... then people on the CS forum
        started posting about learning sailor moon songs on their
        clarinets
        <@Cockroach> and suddenly the Mario guy was normal again...

